<svg width="22" height="22" viewBox="0 0 22 22" fill="none" xmlns="http://www.w3.org/2000/svg">
<path fill-rule="evenodd" clip-rule="evenodd" d="M2.24332 5.83593C2.2741 5.75535 2.28836 5.66935 2.28528 5.58308L2.28387 3.19526L7.03184 7.95759C7.29329 7.61711 7.59756 7.31124 7.93662 7.04803L3.18966 2.28673L5.57029 2.28814C5.7383 2.28523 5.89838 2.21625 6.01603 2.09605C6.13369 1.97585 6.19952 1.81406 6.19934 1.64551C6.19916 1.47696 6.13299 1.31514 6.01508 1.19491C5.89716 1.07469 5.73694 1.00566 5.56892 1.00272L1.64149 1.00038L1.00102 1L1.002 1.64302L1.00433 5.58232C1.00135 5.66859 1.01571 5.7546 1.04658 5.83521C1.07745 5.91583 1.12418 5.98941 1.18399 6.05155C1.2438 6.11369 1.31546 6.16313 1.3947 6.19691C1.47394 6.2307 1.55913 6.24814 1.6452 6.24819C1.73126 6.24824 1.81643 6.2309 1.89563 6.19721C1.97483 6.16352 2.04643 6.11417 2.10617 6.0521C2.16591 5.99003 2.21255 5.91651 2.24332 5.83593ZM14.9748 7.96626C14.7141 7.62519 14.4105 7.31866 14.072 7.05473L18.8109 2.30151L16.4303 2.30293C16.3442 2.30602 16.2585 2.29171 16.1782 2.26085C16.0978 2.22998 16.0245 2.1832 15.9627 2.12328C15.9008 2.06336 15.8516 1.99154 15.818 1.9121C15.7844 1.83267 15.7671 1.74724 15.7672 1.66091C15.7672 1.57459 15.7846 1.48914 15.8183 1.40966C15.852 1.33018 15.9012 1.2583 15.9632 1.19831C16.0252 1.13832 16.0985 1.09145 16.1789 1.06049C16.2593 1.02953 16.345 1.01511 16.431 1.01811L20.3585 1.01577L20.9995 1.01479L20.9992 1.6572L20.9968 5.5965C20.9939 5.76503 20.9251 5.92573 20.8052 6.044C20.6853 6.16227 20.524 6.22865 20.356 6.22883C20.1879 6.22901 20.0266 6.16298 19.9068 6.04496C19.7869 5.92695 19.7182 5.76639 19.7153 5.59787L19.7167 3.21004L14.9748 7.96626ZM14.0715 14.9457C14.41 14.6818 14.7137 14.3753 14.9744 14.0342L19.7157 18.7898L19.7143 16.402C19.7172 16.2335 19.7859 16.0729 19.9058 15.9549C20.0256 15.8369 20.1869 15.7709 20.355 15.771C20.523 15.7712 20.6843 15.8376 20.8042 15.9559C20.9241 16.0741 20.9929 16.2348 20.9958 16.4034L20.9981 20.3427L20.9985 20.9851L20.3574 20.9841L16.43 20.9818C16.344 20.9847 16.2582 20.9703 16.1779 20.9394C16.0975 20.9084 16.0241 20.8615 15.9622 20.8015C15.9002 20.7416 15.8509 20.6697 15.8173 20.5902C15.7836 20.5107 15.7662 20.4253 15.7661 20.3389C15.7661 20.2526 15.7834 20.1672 15.817 20.0878C15.8506 20.0083 15.8998 19.9365 15.9616 19.8766C16.0235 19.8167 16.0968 19.7699 16.1772 19.739C16.2575 19.7081 16.3432 19.6938 16.4292 19.6969L18.8099 19.6983L14.0715 14.9457ZM7.03134 14.0418C7.29273 14.3823 7.59695 14.6882 7.93597 14.9515L3.18864 19.7131L5.56927 19.7117C5.73728 19.7146 5.89736 19.7836 6.01502 19.9038C6.13268 20.024 6.1985 20.1858 6.19833 20.3544C6.19815 20.5229 6.13197 20.6847 6.01406 20.8049C5.89615 20.9252 5.73592 20.9942 5.5679 20.9971L1.64047 20.9995L1 20.9999L1.00098 20.3568L1.00331 16.4175C1.00033 16.3313 1.0147 16.2453 1.04556 16.1646C1.07643 16.084 1.12316 16.0105 1.18297 15.9483C1.24278 15.8862 1.31445 15.8367 1.39368 15.8029C1.47292 15.7692 1.55812 15.7517 1.64418 15.7517C1.73024 15.7516 1.81541 15.769 1.89461 15.8026C1.97381 15.8363 2.04542 15.8857 2.10515 15.9478C2.16489 16.0098 2.21153 16.0834 2.24231 16.1639C2.27308 16.2445 2.28735 16.3305 2.28426 16.4168L2.28285 18.8046L7.03134 14.0418Z" fill="#BEC4DA"/>
<circle cx="11" cy="11" r="3" fill="#BEC4DA"/>
</svg>
