<svg width="22" height="22" viewBox="0 0 22 22" fill="none" xmlns="http://www.w3.org/2000/svg">
<path fill-rule="evenodd" clip-rule="evenodd" d="M10.5 18C13.0911 18 15.3534 16.5922 16.5637 14.4997C17.4341 14.4906 18.26 14.2962 19.004 13.9541C17.7815 17.4737 14.4358 20 10.5 20C9.12249 20 7.81726 19.6905 6.65005 19.1373C7.21916 18.722 7.6871 18.1763 8.00998 17.5442C8.78362 17.8387 9.62297 18 10.5 18ZM3.50005 11.0275C3.50002 11.0183 3.5 11.0092 3.5 11C3.5 7.13401 6.63401 4 10.5 4C11.117 4 11.7153 4.07982 12.2852 4.22969C12.8789 3.64371 13.5941 3.1806 14.3897 2.88163C13.2124 2.31654 11.8932 2 10.5 2C5.52944 2 1.5 6.02944 1.5 11C1.5 11.2485 1.51007 11.4946 1.52982 11.738C2.10755 11.3579 2.77806 11.1073 3.50005 11.0275Z" fill="#0391FF"/>
<circle cx="16.5" cy="8.5" r="4" fill="#0391FF"/>
<circle cx="4" cy="15.5" r="2.5" fill="#0391FF"/>
</svg>
