<svg width="40" height="40" viewBox="0 0 40 40" fill="none" xmlns="http://www.w3.org/2000/svg">
<g clip-path="url(#clip0_606_103)">
<path fill-rule="evenodd" clip-rule="evenodd" d="M17.1794 1.37143C17.1794 0.614009 17.7934 0 18.5508 0H21.4492C22.2066 0 22.8206 0.614009 22.8206 1.37143V2.83772C23.3955 3.01453 23.9524 3.24532 24.4838 3.52698L25.5211 2.48966C26.0567 1.95409 26.925 1.95409 27.4606 2.48967L29.5103 4.53939C30.0459 5.07496 30.0459 5.9433 29.5103 6.47888L28.473 7.5162C28.7547 8.04761 28.9855 8.60449 29.1623 9.17937H30.6286C31.386 9.17937 32 9.79338 32 10.5508V13.4492C32 14.2066 31.386 14.8206 30.6286 14.8206H29.1623C28.9855 15.3955 28.7547 15.9524 28.473 16.4838L29.5103 17.5211C30.0459 18.0567 30.0459 18.925 29.5103 19.4606L27.4606 21.5103C26.925 22.0459 26.0567 22.0459 25.5211 21.5103L24.4838 20.473C23.9524 20.7547 23.3955 20.9855 22.8206 21.1623V22.6286C22.8206 23.386 22.2066 24 21.4492 24H18.5508C17.7934 24 17.1794 23.386 17.1794 22.6286V21.1623C16.6045 20.9855 16.0476 20.7547 15.5162 20.473L14.4789 21.5103C13.9433 22.0459 13.075 22.0459 12.5394 21.5103L10.4897 19.4606C9.95409 18.925 9.95409 18.0567 10.4897 17.5211L11.527 16.4838C11.2453 15.9524 11.0145 15.3955 10.8377 14.8206H9.37143C8.61401 14.8206 8 14.2066 8 13.4492V10.5508C8 9.79338 8.61401 9.17937 9.37143 9.17937H10.8377C11.0145 8.60449 11.2453 8.04761 11.527 7.5162L10.4897 6.47888C10.2325 6.22169 10.088 5.87286 10.088 5.50913C10.088 5.14541 10.2325 4.79658 10.4897 4.53939L12.5394 2.48966C12.7966 2.23247 13.1454 2.08798 13.5091 2.08798C13.8729 2.08798 14.2217 2.23247 14.4789 2.48967L15.5162 3.52698C16.0476 3.24532 16.6045 3.01453 17.1794 2.83772V1.37143ZM25.0904 17.0913C23.7402 18.4416 21.9088 19.2002 19.9993 19.2002C18.0897 19.2002 16.2584 18.4416 14.9081 17.0913C13.5578 15.7411 12.7993 13.9097 12.7993 12.0002C12.7993 10.0906 13.5578 8.25927 14.9081 6.90901C16.2584 5.55875 18.0897 4.80018 19.9993 4.80018C21.9088 4.80018 23.7402 5.55875 25.0904 6.90901C26.4407 8.25927 27.1993 10.0906 27.1993 12.0002C27.1993 13.9097 26.4407 15.7411 25.0904 17.0913Z" fill="#B1B3B8"/>
<path d="M19 29H34C36.7614 29 39 31.2386 39 34V34C39 36.7614 36.7614 39 34 39H19V29Z" fill="#767980"/>
<path fill-rule="evenodd" clip-rule="evenodd" d="M21 30H34C36.2091 30 38 31.7909 38 34C38 36.2091 36.2091 38 34 38H21V30ZM19 30H6C3.79086 30 2 31.7909 2 34C2 36.2091 3.79086 38 6 38H19V30ZM0 34C0 30.6863 2.68629 28 6 28H34C37.3137 28 40 30.6863 40 34C40 37.3137 37.3137 40 34 40H6C2.68629 40 0 37.3137 0 34Z" fill="#D9D9D9"/>
</g>
<defs>
<clipPath id="clip0_606_103">
<rect width="40" height="40" fill="white"/>
</clipPath>
</defs>
</svg>
