<svg width="40" height="40" viewBox="0 0 40 40" fill="none" xmlns="http://www.w3.org/2000/svg">
<g clip-path="url(#clip0_598_4900)">
<mask id="mask0_598_4900" style="mask-type:alpha" maskUnits="userSpaceOnUse" x="0" y="1" width="40" height="38">
<path d="M18.1797 2.08747C18.9459 0.637491 21.0551 0.637516 21.8212 2.08751L39.7661 36.0517C40.4759 37.395 39.4847 39 37.9453 39H2.05465C0.515313 39 -0.475878 37.3949 0.233902 36.0516L18.1797 2.08747Z" fill="#D9D9D9"/>
</mask>
<g mask="url(#mask0_598_4900)">
<path d="M18.1797 2.08747C18.9459 0.637491 21.0551 0.637516 21.8212 2.08751L39.7661 36.0517C40.4759 37.395 39.4847 39 37.9453 39H2.05465C0.515313 39 -0.475878 37.3949 0.233902 36.0516L18.1797 2.08747Z" fill="#BBBBBB"/>
<path d="M9 19L20 39H-2L9 19Z" fill="#868686"/>
<path d="M31 19L42 39H20L31 19Z" fill="#777777"/>
<path fill-rule="evenodd" clip-rule="evenodd" d="M20 12L21.5 16H18.5L20 12ZM19 11L15 21H16.5L17.8125 17.5H22.1875L23.5 21H25L21 11H19Z" fill="#4F4F4F"/>
</g>
</g>
<defs>
<clipPath id="clip0_598_4900">
<rect width="40" height="40" fill="white"/>
</clipPath>
</defs>
</svg>
