<svg width="40" height="40" viewBox="0 0 40 40" fill="none" xmlns="http://www.w3.org/2000/svg">
<g clip-path="url(#clip0_598_4528)">
<mask id="mask0_598_4528" style="mask-type:luminance" maskUnits="userSpaceOnUse" x="0" y="0" width="40" height="40">
<path d="M40 0H0V40H40V0Z" fill="white"/>
</mask>
<g mask="url(#mask0_598_4528)">
<path d="M25.5 0H14.5C12.8431 0 11.5 1.34315 11.5 3V14C11.5 15.6569 12.8431 17 14.5 17H25.5C27.1569 17 28.5 15.6569 28.5 14V3C28.5 1.34315 27.1569 0 25.5 0Z" fill="#BBBBBB"/>
<path d="M14 23H3C1.34315 23 0 24.3431 0 26V37C0 38.6569 1.34315 40 3 40H14C15.6569 40 17 38.6569 17 37V26C17 24.3431 15.6569 23 14 23Z" fill="#BBBBBB"/>
<path d="M37 23H26C24.3431 23 23 24.3431 23 26V37C23 38.6569 24.3431 40 26 40H37C38.6569 40 40 38.6569 40 37V26C40 24.3431 38.6569 23 37 23Z" fill="#BBBBBB"/>
<path d="M19.8939 5C20.4747 5 20.9514 5.07516 21.3239 5.22549C21.6963 5.37582 21.9741 5.60131 22.1572 5.90196C22.3403 6.19608 22.4318 6.56863 22.4318 7.01961C22.4318 7.37909 22.3655 7.68301 22.233 7.93137C22.1067 8.1732 21.9425 8.37255 21.7405 8.52941C21.5385 8.67974 21.327 8.80065 21.1061 8.89216L23 12H21.8258L20.197 9.16667H19.0227V12H18V5H19.8939ZM19.8277 5.90196H19.0227V8.28431H19.875C20.2222 8.28431 20.5063 8.23856 20.7273 8.14706C20.9545 8.05556 21.1187 7.9183 21.2197 7.73529C21.327 7.55229 21.3807 7.3268 21.3807 7.05882C21.3807 6.77778 21.3239 6.55556 21.2102 6.39216C21.1029 6.22222 20.9324 6.09804 20.6989 6.01961C20.4716 5.94118 20.1812 5.90196 19.8277 5.90196Z" fill="#4F4F4F"/>
</g>
</g>
<defs>
<clipPath id="clip0_598_4528">
<rect width="40" height="40" fill="white"/>
</clipPath>
</defs>
</svg>
