<svg width="40" height="40" viewBox="0 0 40 40" fill="none" xmlns="http://www.w3.org/2000/svg">
<path d="M19.1322 3.53511C19.516 2.8633 20.4847 2.8633 20.8686 3.53511L37.4223 32.504C37.8032 33.1706 37.3219 34.0001 36.554 34.0001H3.44679C2.67896 34.0001 2.1976 33.1706 2.57855 32.504L19.1322 3.53511Z" stroke="#BBBBBB" stroke-width="2"/>
<path d="M26.2111 9.63818L22.778 13.2331L28.4788 10.3979C28.7776 10.2523 29.1032 10.3355 29.2533 10.5955C29.4034 10.8554 29.3126 11.1791 29.0357 11.3659L23.5656 14.982L29.4912 12.0242C29.7891 11.8774 30.1148 11.9605 30.2657 12.2218C30.4165 12.4832 30.3257 12.8068 30.0466 12.9931L24.4784 16.6659L30.4835 13.664C30.7815 13.5171 31.1086 13.5994 31.2595 13.8607C31.4103 14.122 31.3195 14.4457 31.0404 14.632L25.4127 18.3391L31.458 15.314C31.7559 15.1671 32.0831 15.2494 32.2339 15.5108C32.3848 15.7721 32.2925 16.0966 32.0149 16.282L26.3633 20.0029L32.4101 16.9769C32.7081 16.8301 33.0352 16.9124 33.1861 17.1737C33.337 17.435 33.2462 17.7586 32.967 17.9449L27.3393 21.6521L33.3474 18.6484C33.6454 18.5016 33.9725 18.5839 34.1234 18.8452C34.2743 19.1065 34.1834 19.4301 33.9043 19.6164L28.3271 23.2944L34.2668 20.3303C34.5648 20.1834 34.8905 20.2665 35.0413 20.5279C35.1922 20.7892 35.1014 21.1128 34.8237 21.2982L29.3336 24.9277L35.3525 21.9359C35.6356 21.7976 35.9431 21.8768 36.0847 22.1255C36.2278 22.3734 36.1389 22.6797 35.8902 22.8431L32.2393 26.2943C32.2289 26.3003 32.2178 26.3086 32.2074 26.3146C32.0735 26.3919 31.9054 26.3686 31.8175 26.2541C31.7226 26.1311 31.7568 25.9497 31.8939 25.8472L35.2482 22.6139L29.5756 25.4328C29.2769 25.5783 28.9512 25.4951 28.8011 25.2352C28.651 24.9752 28.7418 24.6516 29.0187 24.4648L34.5081 20.8339L28.5684 23.7981C28.2704 23.945 27.9447 23.8618 27.7939 23.6005C27.643 23.3392 27.7338 23.0155 28.013 22.8292L33.5886 19.1521L27.5805 22.1558C27.2826 22.3026 26.9554 22.2203 26.8045 21.959C26.6537 21.6977 26.7445 21.3741 27.0236 21.1878L32.6514 17.4806L26.6046 20.5066C26.3051 20.6543 25.9795 20.5711 25.8286 20.3098C25.6777 20.0485 25.7685 19.7249 26.0477 19.5386L31.6992 15.8177L25.6539 18.8428C25.3559 18.9897 25.0288 18.9074 24.8779 18.6461C24.727 18.3847 24.8178 18.0611 25.097 17.8748L30.7247 14.1677L24.7196 17.1696C24.4216 17.3165 24.0945 17.2341 23.9436 16.9728C23.7927 16.7115 23.8835 16.3879 24.1627 16.2016L29.7309 12.5288L23.8054 15.4865C23.5074 15.6334 23.1818 15.5502 23.0309 15.2889C22.88 15.0276 22.9708 14.704 23.2485 14.5185L28.7193 10.9038L22.7146 13.8893C22.4316 14.0276 22.124 13.9483 21.9824 13.6996C21.8401 13.4531 21.9282 13.1454 22.171 12.9855L25.8524 9.20233C25.9872 9.09932 26.1777 9.1097 26.277 9.23017C26.3763 9.35064 26.3467 9.53296 26.2111 9.63818Z" fill="#4F4F4F"/>
<path d="M13.7195 9.63818L17.1526 13.2331L11.4518 10.3979C11.153 10.2523 10.8274 10.3355 10.6773 10.5955C10.5272 10.8554 10.618 11.1791 10.8949 11.3659L16.3649 14.982L10.4394 12.0242C10.1414 11.8774 9.81574 11.9605 9.66487 12.2218C9.514 12.4832 9.6048 12.8068 9.88395 12.9931L15.4522 16.6659L9.44704 13.664C9.14909 13.5171 8.82194 13.5994 8.67107 13.8607C8.5202 14.122 8.611 14.4457 8.89015 14.632L14.5179 18.3391L8.47257 15.314C8.17462 15.1671 7.84747 15.2494 7.6966 15.5108C7.54573 15.7721 7.63802 16.0966 7.91569 16.282L13.5673 20.0029L7.52042 16.9769C7.22247 16.8301 6.89532 16.9124 6.74445 17.1737C6.59358 17.435 6.68438 17.7586 6.96353 17.9449L12.5913 21.6521L6.58314 18.6484C6.28519 18.5016 5.95804 18.5839 5.80717 18.8452C5.6563 19.1065 5.7471 19.4301 6.02625 19.6164L11.6035 23.2944L5.6637 20.3303C5.36575 20.1834 5.04009 20.2665 4.88922 20.5279C4.73835 20.7892 4.82915 21.1128 5.10682 21.2982L10.597 24.9277L4.57805 21.9359C4.29498 21.7976 3.98744 21.8768 3.84583 22.1255C3.70274 22.3734 3.79161 22.6797 4.04038 22.8431L7.69125 26.2943C7.70166 26.3003 7.71278 26.3086 7.72319 26.3146C7.85705 26.3919 8.02517 26.3686 8.11308 26.2541C8.20792 26.1311 8.17379 25.9497 8.03665 25.8472L4.68238 22.6139L10.355 25.4328C10.6537 25.5783 10.9794 25.4951 11.1295 25.2352C11.2795 24.9752 11.1887 24.6516 10.9119 24.4648L5.42248 20.8339L11.3622 23.7981C11.6602 23.945 11.9858 23.8618 12.1367 23.6005C12.2876 23.3392 12.1968 23.0155 11.9176 22.8292L6.34191 19.1521L12.3501 22.1558C12.648 22.3026 12.9752 22.2203 13.126 21.959C13.2769 21.6977 13.1861 21.3741 12.907 21.1878L7.27919 17.4806L13.326 20.5066C13.6255 20.6543 13.9511 20.5711 14.102 20.3098C14.2529 20.0485 14.1621 19.7249 13.8829 19.5386L8.23135 15.8177L14.2767 18.8428C14.5746 18.9897 14.9018 18.9074 15.0527 18.6461C15.2035 18.3847 15.1127 18.0611 14.8336 17.8748L9.20581 14.1677L15.211 17.1696C15.509 17.3165 15.8361 17.2341 15.987 16.9728C16.1378 16.7115 16.047 16.3879 15.7679 16.2016L10.1997 12.5288L16.1252 15.4865C16.4232 15.6334 16.7488 15.5502 16.8997 15.2889C17.0506 15.0276 16.9598 14.704 16.6821 14.5185L11.2112 10.9038L17.216 13.8893C17.499 14.0276 17.8066 13.9483 17.9482 13.6996C18.0905 13.4531 18.0024 13.1454 17.7596 12.9855L14.0782 9.20233C13.9433 9.09932 13.7529 9.1097 13.6536 9.23017C13.5543 9.35064 13.5839 9.53296 13.7195 9.63818Z" fill="#4F4F4F"/>
<path d="M28.4403 32.3071L27.0436 37.0777L26.6485 30.7231C26.6252 30.3916 26.3903 30.1511 26.0901 30.1511C25.79 30.1511 25.5551 30.3916 25.5318 30.7248L25.1352 37.2701L24.7339 30.6595C24.7121 30.328 24.4772 30.0876 24.1755 30.0876C23.8738 30.0876 23.6389 30.328 23.6171 30.663L23.2205 37.3216L22.8177 30.62C22.7959 30.2885 22.561 30.0464 22.2593 30.0464C21.9575 30.0464 21.7227 30.2868 21.7009 30.6217L21.3043 37.3491L20.9015 30.6011C20.8797 30.2697 20.6448 30.0275 20.3431 30.0275C20.0413 30.0275 19.8065 30.2697 19.7847 30.6028L19.3881 37.3577L18.9852 30.608C18.9635 30.2765 18.7286 30.0344 18.4269 30.0344C18.1251 30.0344 17.8903 30.2748 17.8685 30.6097L17.4719 37.337L17.069 30.632C17.0473 30.3006 16.8124 30.0584 16.5107 30.0584C16.2089 30.0584 15.9741 30.2988 15.9523 30.6338L15.5557 37.3027L15.1528 30.6767C15.131 30.3452 14.8962 30.1048 14.5944 30.1048C14.2927 30.1048 14.0578 30.3452 14.0361 30.6784L13.6379 37.2477L13.2195 30.5393C13.1977 30.225 12.9753 29.9983 12.6891 30C12.4029 30 12.1821 30.2301 12.165 30.5273L11.0016 35.4146C11.0016 35.4267 11 35.4404 11 35.4524C11 35.607 11.1042 35.7409 11.2473 35.7598C11.4013 35.7805 11.5413 35.6602 11.5615 35.4902L12.6845 30.9687L13.0795 37.2907C13.1029 37.6221 13.3377 37.8626 13.6379 37.8626C13.9381 37.8626 14.1729 37.6221 14.1963 37.289L14.596 30.7196L14.9988 37.3456C15.0206 37.6771 15.2555 37.9176 15.5572 37.9176C15.859 37.9176 16.0938 37.6771 16.1156 37.3422L16.5122 30.675L16.9151 37.38C16.9368 37.7115 17.1717 37.9536 17.4734 37.9536C17.7752 37.9536 18.01 37.7132 18.0318 37.3783L18.4284 30.6509L18.8313 37.4006C18.853 37.7338 19.0879 37.9742 19.3896 37.9742C19.6914 37.9742 19.9262 37.7338 19.948 37.3989L20.3446 30.6441L20.7475 37.392C20.7692 37.7235 21.0041 37.9656 21.3058 37.9656C21.6076 37.9656 21.8424 37.7252 21.8642 37.3903L22.2608 30.663L22.6637 37.3645C22.6855 37.696 22.9203 37.9382 23.2221 37.9382C23.5238 37.9382 23.7587 37.6977 23.7804 37.3628L24.1771 30.7042L24.5783 37.3147C24.6001 37.6462 24.835 37.8866 25.1367 37.8866C25.4385 37.8866 25.6733 37.6462 25.6951 37.313L26.0901 30.7677L26.507 37.4607C26.5288 37.775 26.7512 38.0017 27.0374 38C27.322 38 27.5444 37.7698 27.5615 37.4796L28.9971 32.3999C29.0189 32.2316 28.9147 32.0718 28.7607 32.0461C28.6067 32.0203 28.4636 32.1371 28.4403 32.3071Z" fill="#4F4F4F"/>
</svg>
