<svg width="40" height="40" viewBox="0 0 40 40" fill="none" xmlns="http://www.w3.org/2000/svg">
<g clip-path="url(#clip0_598_4887)">
<mask id="mask0_598_4887" style="mask-type:luminance" maskUnits="userSpaceOnUse" x="0" y="0" width="40" height="40">
<path d="M40 0H0V40H40V0Z" fill="white"/>
</mask>
<g mask="url(#mask0_598_4887)">
<path d="M16.9102 14.9645V0.326552C16.9102 -0.0294179 16.4232 -0.126501 16.2825 0.197108L12.1489 11.1135C11.6511 12.2677 11.9433 13.5621 12.9172 14.4898L14.5079 16C15.103 15.3744 15.9579 14.9645 16.9102 14.9645Z" fill="#4F4F4F"/>
<path d="M19.4492 19.8477L32.126 27.1667C32.4342 27.3446 32.7618 26.9715 32.5519 26.6878L25.1648 17.6498C24.4141 16.6416 23.147 16.2474 21.8567 16.627L19.7535 17.2495C19.9977 18.0777 19.9253 19.023 19.4492 19.8477Z" fill="#4F4F4F"/>
<path d="M13.8276 19.1553L0.303336 24.7556C-0.0255507 24.8918 0.0710532 25.3788 0.423862 25.385L12.0912 25.0276C13.348 25.0459 14.4322 24.2807 14.9167 23.026L15.7034 20.9786C14.8977 20.6681 14.1919 20.0351 13.8276 19.1553Z" fill="#4F4F4F"/>
<path d="M16.9102 20C18.0147 20 18.9102 19.1046 18.9102 18C18.9102 16.8954 18.0147 16 16.9102 16C15.8056 16 14.9102 16.8954 14.9102 18C14.9102 19.1046 15.8056 20 16.9102 20Z" fill="#4F4F4F"/>
<path fill-rule="evenodd" clip-rule="evenodd" d="M14.6087 26C15.5987 25.7952 16.4159 23.8929 16.8234 22.9246L17.4102 21.5L18.9818 21L19.9075 38.5C19.9667 39.5853 19.0236 40 17.8394 40H15.9809C14.7967 40 13.8537 39.5853 13.9128 38.5L14.6087 26Z" fill="#BBBBBB"/>
<path fill-rule="evenodd" clip-rule="evenodd" d="M28.7657 20.6993L26.8411 18.2403L28.3604 14.1304C28.4513 13.9163 28.7657 13.9805 28.7657 14.216V20.6993ZM32.6849 28.475C33.3978 28.2075 33.8352 27.25 33.2789 26.4653L32.1014 24.961C32.8858 24.7773 33.641 25.0449 34.0988 25.6746L38.8688 31.6527C39.0044 31.8403 38.7929 32.0871 38.5938 31.9694L32.6849 28.475ZM27.4794 25.8425L29.45 27.0305C29.2524 27.1563 29.0192 27.2289 28.7694 27.2289C28.0562 27.2289 27.478 26.6366 27.478 25.9061C27.478 25.8847 27.4785 25.8636 27.4794 25.8425ZM26.7752 26.6696L20.1523 29.4788L20.2215 30.7242L25.654 30.5538C26.4656 30.5659 27.1657 30.0598 27.4786 29.2299L27.9865 27.8756C27.4662 27.6703 27.0104 27.2516 26.7752 26.6696Z" fill="#777777"/>
<path d="M36.978 1.07839C35.4951 0.93485 33.979 1.0322 32.5717 1.36133L32.2965 1.42827C30.5488 1.87724 28.6424 2.01913 26.7781 1.83899C25.9766 1.7604 25.1726 1.64124 24.4422 1.41103C24.2599 1.35324 24.1192 1.25351 24.049 1.13221C23.9787 1.01091 23.9842 0.877198 24.0643 0.75837C24.1443 0.639542 24.2929 0.544566 24.4797 0.492839C24.6665 0.441111 24.8774 0.436534 25.0694 0.480042L25.155 0.50286C25.7318 0.680843 26.3925 0.775158 27.0213 0.836514C28.5044 0.979727 30.0205 0.882024 31.4277 0.552553L31.7029 0.486634C33.4506 0.0376584 35.357 -0.104234 37.2212 0.0759058C38.0108 0.152981 38.8356 0.276199 39.5572 0.503367C39.6512 0.533112 39.7351 0.574313 39.804 0.624617C39.8729 0.67492 39.9256 0.73334 39.9588 0.796537C39.9921 0.859734 40.0054 0.926468 39.998 0.992927C39.9906 1.05939 39.9626 1.12427 39.9156 1.18386C39.8192 1.30304 39.653 1.39357 39.4527 1.43603C39.2523 1.47849 39.0336 1.46952 38.8436 1.41103C38.2612 1.23761 37.61 1.13974 36.978 1.07839ZM36.978 4.12082C35.4951 3.97728 33.979 4.07464 32.5717 4.40377L32.2965 4.4707C30.5488 4.9197 28.6424 5.06159 26.7781 4.88143C25.9766 4.80283 25.1726 4.68367 24.4422 4.45346C24.2599 4.39567 24.1192 4.29594 24.049 4.17464C23.9787 4.05335 23.9842 3.91963 24.0643 3.8008C24.1443 3.68197 24.2929 3.587 24.4797 3.53527C24.6665 3.48354 24.8774 3.47897 25.0694 3.52247L25.155 3.54529C25.7318 3.72327 26.3925 3.81759 27.0213 3.87895C28.5044 4.02216 30.0205 3.92446 31.4277 3.59499L31.7029 3.52907C33.4506 3.08009 35.357 2.9382 37.2212 3.11834C38.0108 3.19541 38.8356 3.31863 39.5572 3.5458C39.6512 3.57554 39.7351 3.61674 39.804 3.66705C39.8729 3.71735 39.9256 3.77577 39.9588 3.83897C39.9921 3.90217 40.0054 3.9689 39.998 4.03536C39.9906 4.10182 39.9626 4.1667 39.9156 4.22629C39.8192 4.34548 39.653 4.436 39.4527 4.47846C39.2523 4.52093 39.0336 4.51195 38.8436 4.45346C38.2612 4.28004 37.61 4.18218 36.978 4.12082ZM32.0037 7.58412L32.2965 7.51313C34.1372 7.04663 35.7884 7.04663 36.978 7.16325C37.61 7.22461 38.2612 7.32247 38.8428 7.49589C39.0328 7.55438 39.2515 7.56336 39.4519 7.52089C39.6522 7.47843 39.8184 7.38791 39.9148 7.26872C39.9618 7.20913 39.9898 7.14425 39.9972 7.07779C40.0046 7.01133 39.9913 6.9446 39.958 6.8814C39.9248 6.8182 39.8721 6.75978 39.8032 6.70948C39.7343 6.65918 39.6504 6.61798 39.5564 6.58823C38.8356 6.36106 38.0108 6.23784 37.2212 6.16077C35.4621 5.99054 33.6636 6.10747 31.9957 6.50051L31.7029 6.5715C30.2205 6.95309 28.6031 7.07397 27.0213 6.92138C26.4821 6.86864 25.9206 6.79208 25.407 6.65922L25.155 6.58823C24.966 6.53323 24.7508 6.527 24.5547 6.57087C24.3587 6.61475 24.1973 6.70527 24.1047 6.82327C24.0122 6.94126 23.9957 7.07746 24.0588 7.20302C24.122 7.32857 24.2598 7.43361 24.443 7.49589C25.1726 7.72661 25.9766 7.84577 26.7781 7.92335C28.1245 8.05519 29.9621 8.06026 32.0037 7.58412Z" fill="#777777"/>
<path fill-rule="evenodd" clip-rule="evenodd" d="M27.4604 30.7319C28.1126 30.597 28.651 29.3436 28.9196 28.7056L29.3062 27.7669L30.3417 27.4375L30.9517 38.9681C30.9906 39.6831 30.3693 39.9564 29.589 39.9564H28.3644C27.5841 39.9564 26.9628 39.6831 27.0017 38.9681L27.4604 30.7319Z" fill="#BBBBBB"/>
</g>
</g>
<defs>
<clipPath id="clip0_598_4887">
<rect width="40" height="40" fill="white"/>
</clipPath>
</defs>
</svg>
