<svg width="22" height="22" viewBox="0 0 22 22" fill="none" xmlns="http://www.w3.org/2000/svg">
<path d="M18.6462 11.9792C18.689 11.6667 18.7104 11.3438 18.7104 11C18.7104 10.6667 18.689 10.3333 18.6355 10.0208L20.8094 8.375C21.0021 8.22917 21.0557 7.94792 20.9379 7.73958L18.8818 4.28125C18.7533 4.05208 18.4855 3.97917 18.2499 4.05208L15.6905 5.05208C15.1551 4.65625 14.5875 4.32292 13.9557 4.07292L13.5701 1.42708C13.5273 1.17708 13.3131 1 13.0561 1H8.94388C8.68687 1 8.4834 1.17708 8.44056 1.42708L8.05504 4.07292C7.42322 4.32292 6.84493 4.66667 6.3202 5.05208L3.76076 4.05208C3.52517 3.96875 3.25744 4.05208 3.12894 4.28125L1.08353 7.73958C0.955023 7.95833 0.997858 8.22917 1.21204 8.375L3.38595 10.0208C3.33241 10.3333 3.28957 10.6771 3.28957 11C3.28957 11.3229 3.31099 11.6667 3.36453 11.9792L1.19062 13.625C0.997858 13.7708 0.944314 14.0521 1.06211 14.2604L3.11823 17.7188C3.24673 17.9479 3.51446 18.0208 3.75005 17.9479L6.30949 16.9479C6.84493 17.3437 7.41251 17.6771 8.04433 17.9271L8.42986 20.5729C8.4834 20.8229 8.68687 21 8.94388 21H13.0561C13.3131 21 13.5273 20.8229 13.5594 20.5729L13.945 17.9271C14.5768 17.6771 15.1551 17.3437 15.6798 16.9479L18.2392 17.9479C18.4748 18.0312 18.7426 17.9479 18.8711 17.7188L20.9272 14.2604C21.0557 14.0312 21.0021 13.7708 20.7987 13.625L18.6462 11.9792ZM11 14.75C8.87963 14.75 7.14478 13.0625 7.14478 11C7.14478 8.9375 8.87963 7.25 11 7.25C13.1204 7.25 14.8552 8.9375 14.8552 11C14.8552 13.0625 13.1204 14.75 11 14.75Z" fill="#1d5edf"/>
</svg>
