<svg width="40" height="40" viewBox="0 0 40 40" fill="none" xmlns="http://www.w3.org/2000/svg">
<path d="M7 33C7 32.4477 7.44772 32 8 32H32C32.5523 32 33 32.4477 33 33V40H7V33Z" fill="#767980"/>
<path d="M10 18C10 12.4772 14.4772 8 20 8V8C25.5228 8 30 12.4772 30 18V30H10V18Z" fill="#B1B3B8"/>
<rect x="19" width="2" height="5" rx="1" fill="#D1D2D3"/>
<rect x="38.5" y="16" width="2" height="5" rx="1" transform="rotate(90 38.5 16)" fill="#D1D2D3"/>
<rect x="6" y="16" width="2" height="5" rx="1" transform="rotate(90 6 16)" fill="#D1D2D3"/>
<rect x="9.94922" y="8" width="2" height="5" rx="1" transform="rotate(135 9.94922 8)" fill="#D1D2D3"/>
<rect width="2" height="5" rx="1" transform="matrix(0.707107 0.707107 0.707107 -0.707107 30 8)" fill="#D1D2D3"/>
<path d="M21 11C21 11 27 11 27 17" stroke="#D1D2D3" stroke-width="1.5" stroke-linecap="round"/>
</svg>
