<svg width="40" height="40" viewBox="0 0 40 40" fill="none" xmlns="http://www.w3.org/2000/svg">
<path d="M32 15H34C36.7614 15 39 17.2386 39 20V20C39 22.7614 36.7614 25 34 25H32V15Z" fill="#D1D1D1"/>
<path fill-rule="evenodd" clip-rule="evenodd" d="M32 16H34C36.2091 16 38 17.7909 38 20C38 22.2091 36.2091 24 34 24H32V16ZM30 16H6C3.79086 16 2 17.7909 2 20C2 22.2091 3.79086 24 6 24H30V16ZM0 20C0 16.6863 2.68629 14 6 14H34C37.3137 14 40 16.6863 40 20C40 23.3137 37.3137 26 34 26H6C2.68629 26 0 23.3137 0 20Z" fill="#909090"/>
</svg>
