<svg width="40" height="40" viewBox="0 0 40 40" fill="none" xmlns="http://www.w3.org/2000/svg">
<g clip-path="url(#clip0_615_2223)">
<path fill-rule="evenodd" clip-rule="evenodd" d="M35 0H2C0.895431 0 0 0.895431 0 2V38C0 39.1046 0.895431 40 2 40H38C39.1046 40 40 39.1046 40 38V17H38V38H2V2H35V0Z" fill="#BBBBBB"/>
<path d="M19.7449 24.5151C19.3525 24.9165 18.7067 24.9163 18.3145 24.5148L10.0227 16.0258C9.63131 15.6252 8.9872 15.624 8.59442 16.0233L6.68742 17.9619C6.30557 18.3501 6.30447 18.9724 6.68494 19.3619L18.3142 31.2676C18.7065 31.6693 19.3526 31.6693 19.7449 31.2676L46.3175 4.06341C46.697 3.67487 46.697 3.05444 46.3175 2.6659L44.4285 0.732023C44.0363 0.330493 43.3905 0.33034 42.9981 0.731685L19.7449 24.5151Z" fill="#767676"/>
</g>
<defs>
<clipPath id="clip0_615_2223">
<rect width="40" height="40" fill="white"/>
</clipPath>
</defs>
</svg>
