<svg width="92" height="93" viewBox="0 0 92 93" fill="none" xmlns="http://www.w3.org/2000/svg">
<g clip-path="url(#clip0_892_19)" filter="url(#filter0_d_892_19)">
<path d="M90.7509 91.9974H1.24776C0.883219 91.9974 0.538649 91.8376 0.301446 91.5629C0.0642422 91.2858 -0.0406267 90.9212 0.0143046 90.5617L7.50494 41.7291C7.59733 41.1198 8.12167 40.6704 8.7384 40.6704H29.8245C30.5137 40.6704 31.073 41.2297 31.073 41.9188C31.073 42.6079 30.5137 43.1672 29.8245 43.1672H9.80956L2.70095 89.503H89.2952L82.1866 43.1672H62.1716C61.4825 43.1672 60.9232 42.6079 60.9232 41.9188C60.9232 41.2297 61.4825 40.6704 62.1716 40.6704H83.2603C83.877 40.6704 84.4013 41.1198 84.4937 41.7291L91.9843 90.5617C92.0393 90.9212 91.9344 91.2883 91.6972 91.5629C91.46 91.8401 91.1129 91.9974 90.7509 91.9974Z" fill="white" stroke="white" stroke-width="0.2"/>
<path d="M45.9908 58.0034C45.7585 58.0034 45.5238 57.9385 45.3191 57.8087C45.0769 57.6539 39.3466 53.9761 33.5263 48.0536C25.7211 40.1088 21.5938 31.9292 21.5938 24.3963C21.5962 10.9435 32.5401 0 45.9908 0C59.4414 0 70.3878 10.9435 70.3878 24.3938C70.3878 31.9267 66.2629 40.1088 58.4552 48.0511C52.635 53.9736 46.9021 57.6514 46.6624 57.8062C46.4577 57.936 46.2255 58.0009 45.9908 58.0009V58.0034ZM45.9908 2.49681C33.9158 2.49681 24.0931 12.3193 24.0931 24.3938C24.0931 39.4546 42.2429 52.6802 45.9908 55.2519C49.7411 52.6802 67.8909 39.4546 67.8909 24.3938C67.8909 12.3193 58.0682 2.49681 45.9908 2.49681Z" fill="white" stroke="white" stroke-width="0.2"/>
<path d="M54.9877 21.3137H56.3476H56.353C57.3802 21.3137 58.2156 22.1456 58.2156 23.1746V25.0374C58.2156 26.0646 57.3802 26.9001 56.353 26.9019H54.9931C54.8286 27.4264 54.6152 27.9291 54.3638 28.4084L55.3295 29.3741C56.0564 30.1029 56.0564 31.2821 55.3295 32.0091L54.0112 33.3275C53.2842 34.0527 52.1034 34.0527 51.3764 33.3275L50.4108 32.3617C49.9316 32.6131 49.4288 32.8283 48.9044 32.9929V34.3529C48.9026 35.3801 48.069 36.2156 47.0418 36.2156H45.1774C44.1503 36.2156 43.3148 35.3801 43.3148 34.3529V32.9947C42.7886 32.8301 42.2859 32.6149 41.8067 32.3635L40.841 33.3293C40.114 34.0545 38.935 34.0563 38.208 33.3293L36.8897 32.0109C36.1628 31.2839 36.1628 30.1029 36.8897 29.3759L37.8536 28.412C37.6022 27.9309 37.387 27.4282 37.2225 26.9019H35.8626C34.8355 26.9019 34 26.07 34 25.0392V23.1764C34 22.1492 34.8336 21.3137 35.8644 21.3137H37.2207C37.387 20.7892 37.6004 20.2865 37.8518 19.8054L36.8861 18.8397C36.1592 18.1127 36.1592 16.9317 36.8861 16.2047L38.2026 14.8882C38.9296 14.1611 40.1104 14.1611 40.8374 14.8882L41.8012 15.8521C42.2822 15.6007 42.785 15.3855 43.3112 15.2209V13.8627C43.3112 12.8337 44.1448 12 45.1738 12H47.0364C48.0653 12 48.899 12.8337 48.899 13.8627V15.2209C49.4234 15.3855 49.9261 15.6007 50.4072 15.8521L51.3728 14.8882C52.0998 14.1611 53.2788 14.1593 54.0058 14.8863L55.3241 16.2047C56.051 16.9299 56.051 18.1109 55.3241 18.8397L54.3584 19.8054C54.608 20.2865 54.8232 20.7892 54.9877 21.3137Z" stroke="white" stroke-width="2" stroke-linecap="round" stroke-linejoin="round"/>
<path d="M46.1057 28.7629C48.6772 28.7629 50.7622 26.6777 50.7622 24.1061C50.7622 21.5344 48.6772 19.4492 46.1057 19.4492C43.5342 19.4492 41.4492 21.5344 41.4492 24.1061C41.4492 26.6777 43.5342 28.7629 46.1057 28.7629Z" stroke="white" stroke-width="2" stroke-linecap="round" stroke-linejoin="round"/>
<path d="M55.2913 92C55.0566 92 54.8194 91.9351 54.6072 91.7953L6.0179 59.9634C5.44112 59.5864 5.27882 58.8124 5.65835 58.2357C6.03537 57.6589 6.80941 57.4966 7.38619 57.8761L55.9779 89.7055C56.5547 90.0825 56.717 90.8565 56.3375 91.4333C56.0978 91.8003 55.6983 91.9975 55.2913 91.9975V92Z" fill="white" stroke="white" stroke-width="0.2"/>
<path d="M85.0611 54.9047C84.8263 54.9047 84.5891 54.8398 84.3769 54.7L66.4593 42.9625C65.8825 42.5855 65.7202 41.8114 66.0998 41.2347C66.4768 40.6579 67.2508 40.4956 67.8276 40.8751L85.7452 52.6126C86.322 52.9897 86.4843 53.7637 86.1047 54.3404C85.865 54.7075 85.4655 54.9047 85.0586 54.9047H85.0611Z" fill="white" stroke="white" stroke-width="0.2"/>
<path d="M47.2025 86.6992C46.9203 86.6992 46.6357 86.6043 46.401 86.407C45.8716 85.9651 45.8017 85.1761 46.2437 84.6493L76.8305 48.0885C77.2724 47.5591 78.0589 47.4892 78.5882 47.9312C79.1176 48.3731 79.1875 49.1621 78.7456 49.6889L48.1588 86.2497C47.9116 86.5444 47.557 86.6967 47.2 86.6967L47.2025 86.6992Z" fill="white" stroke="white" stroke-width="0.2"/>
<path d="M17.364 91.8425C17.0819 91.8425 16.7973 91.7476 16.565 91.5504C16.0357 91.1084 15.9658 90.3194 16.4077 89.7926L29.776 73.8155C30.218 73.2862 31.007 73.2163 31.5338 73.6582C32.0632 74.1002 32.1331 74.8891 31.6911 75.416L18.3228 91.3931C18.0757 91.6877 17.7211 91.84 17.364 91.84V91.8425Z" fill="white" stroke="white" stroke-width="0.2"/>
<path d="M17.554 67.2789C17.2719 67.2789 16.9873 67.1841 16.7525 66.9893C16.2232 66.5474 16.1533 65.7584 16.5952 65.2316L32.8699 45.7789C33.3118 45.2496 34.1009 45.1797 34.6277 45.6216C35.157 46.0635 35.2269 46.8525 34.785 47.3794L18.5103 66.832C18.2632 67.1266 17.9086 67.2789 17.5515 67.2789H17.554Z" fill="white" stroke="white" stroke-width="0.2"/>
</g>
<defs>
<filter id="filter0_d_892_19" x="0" y="0" width="92" height="93" filterUnits="userSpaceOnUse" color-interpolation-filters="sRGB">
<feFlood flood-opacity="0" result="BackgroundImageFix"/>
<feColorMatrix in="SourceAlpha" type="matrix" values="0 0 0 0 0 0 0 0 0 0 0 0 0 0 0 0 0 0 127 0" result="hardAlpha"/>
<feOffset dy="1"/>
<feComposite in2="hardAlpha" operator="out"/>
<feColorMatrix type="matrix" values="0 0 0 0 0 0 0 0 0 0 0 0 0 0 0 0 0 0 0.05 0"/>
<feBlend mode="normal" in2="BackgroundImageFix" result="effect1_dropShadow_892_19"/>
<feBlend mode="normal" in="SourceGraphic" in2="effect1_dropShadow_892_19" result="shape"/>
</filter>
<clipPath id="clip0_892_19">
<rect width="92" height="92" fill="white"/>
</clipPath>
</defs>
</svg>
