<svg width="40" height="40" viewBox="0 0 40 40" fill="none" xmlns="http://www.w3.org/2000/svg">
<path fill-rule="evenodd" clip-rule="evenodd" d="M26 5.5H20.5H19.5H14H13H7.5H6.5H1H0V6.5V12.5V13.5V19.5V20.5V26.5V27.5V33.5V34.5H0.999999H6.5H7.5H13H14H19.5H20.5H26H27H32.5H33.5H39H40V33.5V27.5V26.5V20.5V19.5V13.5V12.5V6.5V5.5H39H33.5H32.5H27H26ZM0.999999 33.5H6.5L6.5 27.5H0.999999L0.999999 33.5ZM0.999999 26.5H6.5V20.5H0.999999L0.999999 26.5ZM0.999999 19.5H6.5V13.5H1L0.999999 19.5ZM1 12.5H6.5L6.5 6.5H1L1 12.5ZM7.5 12.5L7.5 6.5H13V12.5H7.5ZM7.5 19.5V13.5H13V19.5H7.5ZM7.5 26.5V20.5H13V26.5H7.5ZM7.5 33.5L7.5 27.5H13V33.5H7.5ZM14 33.5H19.5V27.5H14V33.5ZM14 26.5H19.5V20.5H14V26.5ZM14 19.5H19.5V13.5H14V19.5ZM14 12.5H19.5V6.5H14V12.5ZM20.5 12.5V6.5H26V12.5H20.5ZM20.5 19.5V13.5H26V19.5H20.5ZM20.5 26.5V20.5H26V26.5H20.5ZM20.5 33.5V27.5H26V33.5H20.5ZM27 6.5V12.5H32.5V6.5H27ZM27 13.5V19.5H32.5V13.5H27ZM27 20.5V26.5H32.5V20.5H27ZM27 27.5V33.5H32.5V27.5H27ZM39 27.5V33.5H33.5V27.5H39ZM39 20.5V26.5H33.5V20.5H39ZM39 13.5V19.5H33.5V13.5H39ZM39 6.5V12.5H33.5V6.5H39Z" fill="#94979D"/>
</svg>
