<svg width="40" height="40" viewBox="0 0 40 40" fill="none" xmlns="http://www.w3.org/2000/svg">
<path d="M28.1019 22.0053C29.1437 22.0053 30 21.0933 30 20V2.00533C30 0.898666 29.1437 0 28.1019 0H11.8981C10.8563 0 10 0.898666 10 2.00533V20C10 21.0933 10.8563 22.0053 11.8981 22.0053C12.9526 22.0053 13.8089 22.904 13.8089 23.9973C13.8089 25.104 12.9526 26.0027 11.8981 26.0027C10.8563 26.0027 10 26.9013 10 27.9947C10 29.1013 10.8563 30 11.8981 30H28.1019C29.1437 30 30 29.1013 30 27.9947C30 26.9013 29.1437 26.0027 28.1019 26.0027C27.0474 26.0027 26.1911 25.104 26.1911 23.9973C26.1911 22.904 27.0474 22.0053 28.1019 22.0053Z" fill="#535761"/>
<path d="M10 27.9933C10 29.1007 10.8563 30 11.8981 30H28.1019C29.1437 30 30 29.1007 30 27.9933C30 26.8993 29.1437 26 28.1019 26H11.8981C10.8563 26 10 26.8993 10 27.9933Z" fill="#767980"/>
<path d="M15 30V38.9973C15 39.5573 15.4444 40 15.9933 40C16.5556 40 17 39.5573 17 38.9973V30H15Z" fill="#E8E8E8"/>
<path d="M23 30V38.9973C23 39.5573 23.4444 40 24.0067 40C24.5556 40 25 39.5573 25 38.9973V30H23Z" fill="#E8E8E8"/>
</svg>
