<svg width="40" height="40" viewBox="0 0 40 40" fill="none" xmlns="http://www.w3.org/2000/svg">
<g clip-path="url(#clip0_592_8601)">
<mask id="mask0_592_8601" style="mask-type:alpha" maskUnits="userSpaceOnUse" x="4" y="0" width="33" height="40">
<path d="M5.94396 14.9909C5.94396 14.9909 -2.59034 34.507 16.1044 39.6249C16.1044 39.6249 12.5953 36.5517 13.1333 32.9825C13.6102 29.8488 15.921 28.0944 14.4171 24.6945C14.4171 24.6945 17.3393 26.3037 17.9996 28.5904C17.9996 28.5904 17.1681 21.9601 22.5113 20.8469C22.5113 20.8469 21.3375 24.876 23.2571 25.8197C25.1767 26.7635 26.4238 30.2359 25.5924 32.1839C25.5924 32.1839 28.6736 29.4253 28.9303 27.1748C28.9303 27.1748 30.2508 36.8784 26.0693 40C26.0693 40 34.7625 36.4307 35.7651 29.5463C36.7677 22.6618 31.3268 20.7018 37 11.5668C37 11.5668 28.6858 11.337 26.9251 16.5638C26.9251 16.5638 29.5906 5.45675 16.9114 0C16.9114 0 19.8336 5.08167 15.3219 10.3085C10.8102 15.5354 11.3115 23.1579 11.3115 23.1579C11.3115 23.1579 5.56493 20.6897 5.94396 14.9909Z" fill="#E8E8E8"/>
</mask>
<g mask="url(#mask0_592_8601)">
<path d="M5.94396 14.9909C5.94396 14.9909 -2.59034 34.507 16.1044 39.6249C16.1044 39.6249 12.5953 36.5517 13.1333 32.9825C13.6102 29.8488 15.921 28.0944 14.4171 24.6945C14.4171 24.6945 17.3393 26.3037 17.9996 28.5904C17.9996 28.5904 17.1681 21.9601 22.5113 20.8469C22.5113 20.8469 21.3375 24.876 23.2571 25.8197C25.1767 26.7635 26.4238 30.2359 25.5924 32.1839C25.5924 32.1839 28.6736 29.4253 28.9303 27.1748C28.9303 27.1748 30.2508 36.8784 26.0693 40C26.0693 40 34.7625 36.4307 35.7651 29.5463C36.7677 22.6618 31.3268 20.7018 37 11.5668C37 11.5668 28.6858 11.337 26.9251 16.5638C26.9251 16.5638 29.5906 5.45675 16.9114 0C16.9114 0 19.8336 5.08167 15.3219 10.3085C10.8102 15.5354 11.3115 23.1579 11.3115 23.1579C11.3115 23.1579 5.56493 20.6897 5.94396 14.9909Z" fill="#767980"/>
<path d="M5.99955 21.1468C5.99955 21.1468 3.53914 33.5145 17.0518 39.4062C17.0518 39.4062 14.299 36.9728 14.7211 34.1468C15.0951 31.6656 16.9079 30.2765 15.7282 27.5845C15.7282 27.5845 18.0206 28.8587 18.5385 30.6693C18.5385 30.6693 17.3085 25.3814 21.5 24.5C21.5 24.5 21.157 27.7282 22.6629 28.4755C24.1688 29.2227 25.1471 31.9721 24.4949 33.5145C24.4949 33.5145 27.7986 32.4511 28 30.6693C28 30.6693 28.1493 37.2315 24.8689 39.7031C24.8689 39.7031 32.2135 36.1202 33 30.6693C33.9938 23.7813 30 23.7031 34 13.6209C34 13.6209 27.4173 15.0182 24.8689 21.1468C24.8689 21.1468 27.5518 7.70312 19.5518 3.20312C19.5518 3.20312 21.1923 8 17.0518 11.5C12.9114 15 12.9114 25.2305 12.9114 25.2305C12.9114 25.2305 6.8944 25.5434 5.99955 21.1468Z" fill="#D2D3D4"/>
</g>
</g>
<defs>
<clipPath id="clip0_592_8601">
<rect width="40" height="40" fill="white"/>
</clipPath>
</defs>
</svg>
