<svg width="40" height="40" viewBox="0 0 40 40" fill="none" xmlns="http://www.w3.org/2000/svg">
<path fill-rule="evenodd" clip-rule="evenodd" d="M21 14.0082V9C25.7691 9.23484 30.099 11.1402 33.4168 14.1432L29.8753 17.6846C27.4714 15.5803 24.3894 14.2313 21 14.0082Z" fill="#B1B3B8"/>
<path fill-rule="evenodd" clip-rule="evenodd" d="M19 14.0082V9C14.2309 9.23484 9.90098 11.1402 6.58324 14.1432L10.1247 17.6846C12.5286 15.5803 15.6106 14.2313 19 14.0082Z" fill="#96999F"/>
<path d="M31.2891 19.0985C33.3941 21.5027 34.7435 24.5852 34.9666 27.9753H39.9749C39.74 23.2055 37.8341 18.8751 34.8305 15.5571L31.2891 19.0985Z" fill="#DCDDDF"/>
<path d="M8.6875 19.0985C6.58248 21.5027 5.23308 24.5852 5.00994 27.9753H0.00170517C0.23658 23.2055 2.14242 18.8751 5.14611 15.5571L8.6875 19.0985Z" fill="#51555F"/>
<path fill-rule="evenodd" clip-rule="evenodd" d="M20 31.9756C19.2044 31.9756 18.4413 31.6521 17.8787 31.0763C17.3161 30.5005 17 29.7195 17 28.9052C17 26.8583 20 16.9756 20 16.9756C20 16.9756 23 26.8583 23 28.9052C23 29.7195 22.6839 30.5005 22.1213 31.0763C21.5587 31.6521 20.7956 31.9756 20 31.9756ZM20 30.4756C20.8284 30.4756 21.5 29.804 21.5 28.9756C21.5 28.1472 20.8284 27.4756 20 27.4756C19.1716 27.4756 18.5 28.1472 18.5 28.9756C18.5 29.804 19.1716 30.4756 20 30.4756Z" fill="#C8C9CB"/>
</svg>
