<svg width="40" height="40" viewBox="0 0 40 40" fill="none" xmlns="http://www.w3.org/2000/svg">
<g clip-path="url(#clip0_606_154)">
<rect x="40" y="24" width="2" height="40" transform="rotate(90 40 24)" fill="#94979D"/>
<path d="M32 13H38C39.1046 13 40 13.8954 40 15V15C40 16.1046 39.1046 17 38 17H32V13Z" fill="#DCDDDF"/>
<rect x="21" y="13" width="10" height="4" fill="#D2D3D4"/>
<rect x="10" y="13" width="10" height="4" fill="#96999F"/>
<path d="M0 15C0 13.8954 0.895431 13 2 13H9V17H2C0.89543 17 0 16.1046 0 15V15Z" fill="#51555F"/>
<path d="M20.5 21L22.5 23.3333V28H20.5H18.5V23.3333L20.5 21Z" fill="#D9D9D9"/>
</g>
<defs>
<clipPath id="clip0_606_154">
<rect width="40" height="40" fill="white"/>
</clipPath>
</defs>
</svg>
