<svg width="40" height="40" viewBox="0 0 40 40" fill="none" xmlns="http://www.w3.org/2000/svg">
<g clip-path="url(#clip0_592_8607)">
<rect width="40" height="40" rx="2" fill="#767980"/>
<circle cx="10" cy="26" r="4" stroke="#D2D3D4" stroke-width="2"/>
<circle cx="30" cy="26" r="4" stroke="#D2D3D4" stroke-width="2"/>
<rect x="33" y="25" width="7" height="2" fill="#D9D9D9"/>
<rect y="25" width="7" height="2" fill="#D9D9D9"/>
<rect x="12.0312" y="22.0005" width="11.3598" height="2" transform="rotate(-45 12.0312 22.0005)" fill="#D9D9D9"/>
</g>
<defs>
<clipPath id="clip0_592_8607">
<rect width="40" height="40" fill="white"/>
</clipPath>
</defs>
</svg>
