<svg width="40" height="40" viewBox="0 0 40 40" fill="none" xmlns="http://www.w3.org/2000/svg">
<rect x="9" y="40" width="40" height="2" transform="rotate(-90 9 40)" fill="#535761"/>
<path d="M8.30714 9.68407L13.0777 11.3912L6.72306 11.874C6.39159 11.9025 6.15115 12.1896 6.15115 12.5565C6.15115 12.9234 6.39159 13.2104 6.72478 13.2389L13.2701 13.7237L6.65952 14.2142C6.32805 14.2408 6.0876 14.5278 6.0876 14.8966C6.0876 15.2654 6.32805 15.5525 6.66295 15.5791L13.3216 16.0638L6.62002 16.5562C6.28854 16.5828 6.04638 16.8699 6.04638 17.2387C6.04638 17.6074 6.28683 17.8945 6.62173 17.9211L13.3491 18.4059L6.60112 18.8982C6.26965 18.9248 6.02749 19.2119 6.02749 19.5807C6.02749 19.9495 6.26965 20.2365 6.60284 20.2631L13.3577 20.7479L6.60799 21.2403C6.27652 21.2669 6.03436 21.5539 6.03436 21.9227C6.03436 22.2915 6.2748 22.5786 6.60971 22.6052L13.337 23.0899L6.63204 23.5823C6.30057 23.6089 6.0584 23.896 6.0584 24.2648C6.0584 24.6335 6.29885 24.9206 6.63376 24.9472L13.3027 25.432L6.67669 25.9243C6.34522 25.9509 6.10477 26.238 6.10477 26.6068C6.10477 26.9756 6.34522 27.2626 6.67841 27.2892L13.2477 27.7759L6.5393 28.2873C6.225 28.3139 5.99829 28.5857 6.00001 28.9355C6.00001 29.2853 6.23015 29.5552 6.52727 29.5762L11.4146 30.9981C11.4267 30.9981 11.4404 31 11.4524 31C11.607 31 11.741 30.8726 11.7598 30.6977C11.7805 30.5095 11.6602 30.3385 11.4902 30.3137L6.96866 28.9412L13.2907 28.4584C13.6221 28.4298 13.8626 28.1428 13.8626 27.7759C13.8626 27.409 13.6221 27.122 13.289 27.0934L6.71963 26.6049L13.3456 26.1125C13.6771 26.0859 13.9176 25.7989 13.9176 25.4301C13.9176 25.0613 13.6771 24.7742 13.3422 24.7476L6.67498 24.2629L13.38 23.7705C13.7115 23.7439 13.9536 23.4568 13.9536 23.088C13.9536 22.7192 13.7132 22.4322 13.3783 22.4056L6.65093 21.9208L13.4006 21.4285C13.7338 21.4018 13.9742 21.1148 13.9742 20.746C13.9742 20.3772 13.7338 20.0902 13.3989 20.0635L6.64406 19.5788L13.392 19.0864C13.7235 19.0598 13.9656 18.7728 13.9656 18.404C13.9656 18.0352 13.7252 17.7481 13.3903 17.7215L6.66295 17.2368L13.3645 16.7444C13.696 16.7178 13.9382 16.4307 13.9382 16.0619C13.9382 15.6931 13.6977 15.4061 13.3628 15.3795L6.70417 14.8947L13.3147 14.4043C13.6462 14.3776 13.8866 14.0906 13.8866 13.7218C13.8866 13.353 13.6462 13.066 13.313 13.0393L6.76772 12.5565L13.4607 12.047C13.775 12.0204 14.0017 11.7486 14 11.3988C14 11.0509 13.7698 10.779 13.4796 10.7581L8.39988 9.00351C8.23157 8.9769 8.07184 9.10427 8.04608 9.29246C8.02032 9.48066 8.13711 9.65556 8.30714 9.68407Z" fill="white"/>
<rect x="29" y="40" width="40" height="2" transform="rotate(-90 29 40)" fill="#535761"/>
<path d="M31.6929 9.68407L26.9223 11.3912L33.2769 11.874C33.6084 11.9025 33.8489 12.1896 33.8489 12.5565C33.8489 12.9234 33.6084 13.2104 33.2752 13.2389L26.7299 13.7237L33.3405 14.2142C33.672 14.2408 33.9124 14.5278 33.9124 14.8966C33.9124 15.2654 33.672 15.5525 33.337 15.5791L26.6784 16.0638L33.38 16.5562C33.7115 16.5828 33.9536 16.8699 33.9536 17.2387C33.9536 17.6074 33.7132 17.8945 33.3783 17.9211L26.6509 18.4059L33.3989 18.8982C33.7303 18.9248 33.9725 19.2119 33.9725 19.5807C33.9725 19.9495 33.7303 20.2365 33.3972 20.2631L26.6423 20.7479L33.392 21.2403C33.7235 21.2669 33.9656 21.5539 33.9656 21.9227C33.9656 22.2915 33.7252 22.5786 33.3903 22.6052L26.663 23.0899L33.368 23.5823C33.6994 23.6089 33.9416 23.896 33.9416 24.2648C33.9416 24.6335 33.7012 24.9206 33.3662 24.9472L26.6973 25.432L33.3233 25.9243C33.6548 25.9509 33.8952 26.238 33.8952 26.6068C33.8952 26.9756 33.6548 27.2626 33.3216 27.2892L26.7523 27.7759L33.4607 28.2873C33.775 28.3139 34.0017 28.5857 34 28.9355C34 29.2853 33.7698 29.5552 33.4727 29.5762L28.5854 30.9981C28.5733 30.9981 28.5596 31 28.5476 31C28.393 31 28.259 30.8726 28.2402 30.6977C28.2195 30.5095 28.3398 30.3385 28.5098 30.3137L33.0313 28.9412L26.7093 28.4584C26.3779 28.4298 26.1374 28.1428 26.1374 27.7759C26.1374 27.409 26.3779 27.122 26.711 27.0934L33.2804 26.6049L26.6544 26.1125C26.3229 26.0859 26.0824 25.7989 26.0824 25.4301C26.0824 25.0613 26.3229 24.7742 26.6578 24.7476L33.325 24.2629L26.62 23.7705C26.2885 23.7439 26.0464 23.4568 26.0464 23.088C26.0464 22.7192 26.2868 22.4322 26.6217 22.4056L33.3491 21.9208L26.5994 21.4285C26.2662 21.4018 26.0258 21.1148 26.0258 20.746C26.0258 20.3772 26.2662 20.0902 26.6011 20.0635L33.3559 19.5788L26.608 19.0864C26.2765 19.0598 26.0344 18.7728 26.0344 18.404C26.0344 18.0352 26.2748 17.7481 26.6097 17.7215L33.337 17.2368L26.6355 16.7444C26.304 16.7178 26.0618 16.4307 26.0618 16.0619C26.0618 15.6931 26.3023 15.4061 26.6372 15.3795L33.2958 14.8947L26.6853 14.4043C26.3538 14.3776 26.1134 14.0906 26.1134 13.7218C26.1134 13.353 26.3538 13.066 26.687 13.0393L33.2323 12.5565L26.5393 12.047C26.225 12.0204 25.9983 11.7486 26 11.3988C26 11.0509 26.2302 10.779 26.5204 10.7581L31.6001 9.00351C31.7684 8.9769 31.9282 9.10427 31.9539 9.29246C31.9797 9.48066 31.8629 9.65556 31.6929 9.68407Z" fill="white"/>
</svg>
