<svg width="40" height="40" viewBox="0 0 40 40" fill="none" xmlns="http://www.w3.org/2000/svg">
<path d="M16 10.7523C16 10.3344 15.3407 10 14.5165 10H7.48352C6.65934 10 6 10.3344 6 10.7523V13H15.9817V10.7523H16Z" fill="#B1B3B8"/>
<path fill-rule="evenodd" clip-rule="evenodd" d="M23 23L34 18V40H23V23ZM24 26H27V30H24V26ZM27 32H24V36H27V32ZM29 26H32V30H29V26ZM32 32H29V36H32V32Z" fill="#767980"/>
<path fill-rule="evenodd" clip-rule="evenodd" d="M11 23L22 18V40H11V23ZM13 26H16V30H13V26ZM16 32H13V36H16V32ZM18 26H21V30H18V26ZM21 32H18V36H21V32Z" fill="#767980"/>
<path fill-rule="evenodd" clip-rule="evenodd" d="M6 15H16V19.2727L9.5 22.5V40H6V15Z" fill="#B1B3B8"/>
<path d="M32.4006 1.85064C31.038 1.85064 29.8531 2.63944 29.2311 3.77713C28.2387 2.6091 26.7873 1.85064 25.1433 1.85064C23.6622 1.85064 22.3292 2.45741 21.3517 3.44341C20.8333 1.47141 19.0856 0 16.9825 0C14.6128 0 12.6874 1.88098 12.48 4.24738C11.932 3.91365 11.3099 3.71645 10.6287 3.71645C8.62919 3.71645 7 5.38506 7 7.4329C7 8.11552 7.19254 8.73746 7.50357 9.28355H8.80692H12.4356H13.7389C13.9167 8.96499 14.05 8.6161 14.124 8.23687C14.909 8.87398 15.8717 9.28355 16.9529 9.28355C18.0193 9.28355 18.982 8.88915 19.7521 8.26721C20.152 10.937 22.3884 13 25.1136 13C27.6907 13 29.8383 11.1494 30.4011 8.69195C30.9639 9.07118 31.6452 9.29872 32.3709 9.29872C34.3704 9.29872 35.9996 7.63011 35.9996 5.58226C36.0292 3.51925 34.4 1.85064 32.4006 1.85064Z" fill="#D2D3D4"/>
</svg>
