<svg width="40" height="40" viewBox="0 0 40 40" fill="none" xmlns="http://www.w3.org/2000/svg">
<path fill-rule="evenodd" clip-rule="evenodd" d="M38.3206 12.8686C38.3206 12.3936 38.6937 12.0135 39.147 12.0135C39.6135 12.0135 39.9867 12.3936 40 12.8551V38.3035C40 39.24 39.2402 40 38.3339 40H1.66614C0.74646 40 0 39.2264 0 38.3035V12.8551C0 12.3936 0.386597 12 0.853027 12C1.31958 12 1.67944 12.38 1.67944 12.8551V17.2119C2.32642 17.3593 2.81934 17.6065 3.30542 17.8502C3.49036 17.9429 3.67432 18.0351 3.86536 18.1212C4.55847 18.4469 5.35815 18.7184 6.67773 18.7184V25.4639C6.67773 26.0068 7.11768 26.4411 7.63745 26.4411H12.3826C12.9023 26.4411 13.3422 26.0068 13.3422 25.4639V17.0218C15.005 17.0286 15.838 17.4544 16.6694 17.8794C17.5042 18.3061 18.3373 18.7319 20.0067 18.7319C21.6594 18.7319 22.4991 18.3112 23.3256 17.8769C24.152 17.4426 24.9917 17.0218 26.6578 17.0218V25.4639C26.6578 26.0068 27.0977 26.4411 27.6174 26.4411H32.3625C32.8823 26.4411 33.3223 26.0068 33.3223 25.4639V18.7184C34.9827 18.7184 35.8177 18.2929 36.6516 17.868C37.1498 17.6142 37.6475 17.3607 38.3206 17.1983V12.8686Z" fill="#767980"/>
<path d="M33.3269 19.0661V10.9598C33.3269 10.4265 32.9004 9.99986 32.3672 9.99986H30.8344V5.40013V5.33347V5.2668C30.8344 4.84015 30.4878 4.50684 30.0746 4.50684H28.2619C27.8354 4.50684 27.5022 4.85349 27.5022 5.2668V5.41347C27.5022 5.84011 27.8487 6.17343 28.2619 6.17343H29.1683V10.0132H27.6355C27.1023 10.0132 26.6758 10.4398 26.6758 10.9731V17.4129C29.9813 17.4129 29.9947 19.0795 33.3269 19.0661Z" fill="#767980"/>
<path d="M27.6159 26.5H32.361C32.8942 26.5 33.3207 26.0734 33.3207 25.54V18.6666C29.9885 18.6666 29.9885 17 26.6562 17V25.5267C26.6562 26.0734 27.0828 26.5 27.6159 26.5Z" fill="#B1B3B8"/>
<path d="M13.3285 17.4129V10.9731C13.3285 10.4398 12.902 10.0132 12.3688 10.0132H10.836V6.17343H11.7424C12.1689 6.17343 12.5021 5.82678 12.5021 5.41347V5.2668C12.5021 4.84015 12.1556 4.50684 11.7424 4.50684H9.91631C9.48979 4.50684 9.15656 4.85349 9.15656 5.2668V5.33347V5.40013V9.99986H7.62374C7.09059 9.99986 6.66406 10.4265 6.66406 10.9598V19.0661C9.98296 19.0661 9.99628 17.4129 13.3285 17.4129Z" fill="#767980"/>
<path d="M7.62374 26.5H12.3688C12.902 26.5 13.3285 26.0734 13.3285 25.54V17C9.99628 17 9.99628 18.6666 6.66406 18.6666V25.54C6.66406 26.0734 7.09059 26.5 7.62374 26.5Z" fill="#B1B3B8"/>
<rect width="8" height="2" rx="1" transform="matrix(-1 0 0 1 14 32)" fill="#B1B3B8"/>
<path fill-rule="evenodd" clip-rule="evenodd" d="M29.2 29.8C29.2 29.3582 29.5582 29 30 29C30.4418 29 30.8 29.3582 30.8 29.8V32.2H33.2C33.6418 32.2 34 32.5582 34 33C34 33.4418 33.6418 33.8 33.2 33.8H30.8V36.2C30.8 36.6418 30.4418 37 30 37C29.5582 37 29.2 36.6418 29.2 36.2V33.8H26.8C26.3582 33.8 26 33.4418 26 33C26 32.5582 26.3582 32.2 26.8 32.2H29.2V29.8Z" fill="#B1B3B8"/>
<path d="M20.7309 0L16 6.74H19.7827L19.1605 12L24 5.02H20.2667L20.7309 0Z" fill="#B6B8BB"/>
</svg>
