<svg width="40" height="40" viewBox="0 0 40 40" fill="none" xmlns="http://www.w3.org/2000/svg">
<path d="M30.4459 13V35.8177V38.3298C30.4459 38.9444 30.2803 39.5056 30 40H30.4459H32.0382H38.4076C39.2866 40 40 39.2517 40 38.3298V17.8236C40 15.365 35.8471 13.3474 30.4459 13Z" fill="#767980"/>
<path d="M11.5 16H7.5V20H11.5V16Z" fill="#B1B3B8"/>
<path d="M11.5 10H7.5V14H11.5V10Z" fill="#B1B3B8"/>
<path d="M11.5 4H7.5V8H11.5V4Z" fill="#B1B3B8"/>
<path d="M11.5002 0V0.440023V2H7.5V0.680035C8.86007 0.360018 9.91346 0.120006 11.5002 0Z" fill="#B1B3B8"/>
<path d="M11.5 22H7.5V26H11.5V22Z" fill="#B1B3B8"/>
<path d="M29 6.03855V38.2727C29 39.2262 28.2358 40 27.2941 40H1.70588C0.764235 40 0 39.2262 0 38.2727V6.03855C0 4.28364 1.81506 2.70836 4.69459 1.60291V29.5847C4.69459 30.3447 5.30871 30.9665 6.05929 30.9665C6.80988 30.9665 7.424 30.3447 7.424 29.5847V28H11.5181V29.5847C11.5181 30.3447 12.1322 30.9665 12.8828 30.9665C13.6334 30.9665 14.2475 30.3447 14.2475 29.5847V0.566546V0.0138187C14.5341 5.59725e-07 14.2066 0 14.5068 0C22.504 0 29 2.72218 29 6.03855Z" fill="#B1B3B8"/>
</svg>
