<svg width="22" height="22" viewBox="0 0 22 22" fill="none" xmlns="http://www.w3.org/2000/svg">
<path fill-rule="evenodd" clip-rule="evenodd" d="M2 3H19V8.99963C19.3786 9.28403 19.7156 9.62092 20 9.99951V3V2H19H2H1V3V16V17H2H8.5V19H5.5V20H15.5V19H12.5V17H12.9995C12.6209 16.7156 12.284 16.3786 11.9996 16H2V3Z" fill="#459450"/>
<path d="M20.9463 18.8293L18.3843 16.2624C18.0744 16.5107 17.718 16.7072 17.3151 16.8521C16.9122 16.9969 16.4835 17.0693 16.0289 17.0693C14.9029 17.0693 13.95 16.6789 13.1702 15.898C12.3901 15.1167 12 14.1623 12 13.0347C12 11.907 12.3901 10.9526 13.1702 10.1713C13.95 9.39043 14.9029 9 16.0289 9C17.155 9 18.1081 9.39043 18.8882 10.1713C19.668 10.9526 20.0579 11.907 20.0579 13.0347C20.0579 13.4898 19.9855 13.9192 19.8409 14.3226C19.6963 14.7261 19.5 15.083 19.2521 15.3934L21.8295 17.9758C21.9432 18.0896 22 18.2293 22 18.3948C22 18.5603 21.938 18.7052 21.814 18.8293C21.7004 18.9431 21.5558 19 21.3802 19C21.2045 19 21.0599 18.9431 20.9463 18.8293ZM16.0289 15.8279C16.8037 15.8279 17.4624 15.5564 18.005 15.0135C18.5471 14.4702 18.8182 13.8106 18.8182 13.0347C18.8182 12.2588 18.5471 11.5991 18.005 11.0558C17.4624 10.5129 16.8037 10.2414 16.0289 10.2414C15.2541 10.2414 14.5955 10.5129 14.0529 11.0558C13.5107 11.5991 13.2397 12.2588 13.2397 13.0347C13.2397 13.8106 13.5107 14.4702 14.0529 15.0135C14.5955 15.5564 15.2541 15.8279 16.0289 15.8279Z" fill="#459450"/>
<rect x="3.5" y="5.5" width="1.5" height="9" fill="#459450"/>
<rect x="5.5" y="7.5" width="1.5" height="7" fill="#459450"/>
<rect x="7.5" y="9.5" width="1.5" height="5" fill="#459450"/>
<rect x="9.5" y="8.5" width="1.5" height="6" fill="#459450"/>
</svg>
