<svg width="40" height="40" viewBox="0 0 40 40" fill="none" xmlns="http://www.w3.org/2000/svg">
<path fill-rule="evenodd" clip-rule="evenodd" d="M38 15V9L21 9V15L38 15ZM19 15L2 15L2 9L19 9V15ZM19 17V23H2L2 17L19 17ZM21 23V17L38 17V23H21ZM19 25H2L2 31H19V25ZM21 31V25H38V31H21ZM19 33H2H0V31V25V23V17V15V9V7H2H38L40 7V9V15V17V23V25V31V33H38L21 33H19Z" fill="#D9D9D9"/>
</svg>
