<svg width="40" height="40" viewBox="0 0 40 40" fill="none" xmlns="http://www.w3.org/2000/svg">
<g clip-path="url(#clip0_598_3582)">
<path d="M36.6667 17.5808C36.1467 17.2743 35.6 17.0477 35 16.8877C34.4667 16.7544 33.9067 16.6611 33.3333 16.6611H31.6667H8.33333H6.66667C6.09333 16.6611 5.53333 16.7544 5 16.9011C4.4 17.061 3.85333 17.2876 3.33333 17.5942C1.34667 18.7404 0 20.8597 0 23.3256V28.3239C0 30.5099 1.06667 32.4292 2.70667 33.6422C2.89333 33.4023 3.10667 33.189 3.33333 32.9891C3.81333 32.5492 4.37333 32.216 5 31.9894C5.52 31.8028 6.08 31.6695 6.66667 31.6695C8.84 31.6695 10.6667 33.069 11.36 35.0017H31.6667V38.334C31.6667 39.2536 32.4133 40.0001 33.3333 40.0001C34.2533 40.0001 35 39.2536 35 38.334V35.0017V34.7618C35.6 34.6019 36.1467 34.3619 36.6667 34.0554C38.6533 32.9091 40 30.7898 40 28.3373V23.3256C40 20.8597 38.6533 18.7404 36.6667 17.5808Z" fill="#BBBBBB"/>
<path d="M20.0039 0H18.3372H15.0039V4.99835V14.995H18.3372V7.50418C18.3372 7.03767 18.7106 6.67779 19.1639 6.67779H20.0039C20.9239 6.67779 21.6706 5.93137 21.6706 5.01167V1.67944C21.6706 0.74642 20.9239 0 20.0039 0Z" fill="#868686"/>
<path d="M28.3222 9.01042C28.5889 9.10372 28.8556 9.15704 29.1489 9.15704C29.4422 9.15704 29.7222 9.10372 29.9756 9.01042C30.9489 8.66387 31.6422 7.74417 31.6422 6.66453C31.6422 5.27832 30.5222 4.15869 29.1356 4.15869C27.7489 4.15869 26.6289 5.27832 26.6289 6.66453C26.6556 7.7575 27.3489 8.66387 28.3222 9.01042Z" fill="#868686"/>
<path d="M6.66927 39.9867C8.51022 39.9867 10.0026 38.4948 10.0026 36.6545C10.0026 34.8142 8.51022 33.3223 6.66927 33.3223C4.82832 33.3223 3.33594 34.8142 3.33594 36.6545C3.33594 38.4948 4.82832 39.9867 6.66927 39.9867Z" fill="#868686"/>
<path d="M20.0039 8.33057V11.6628V13.3289C20.2039 13.3289 20.3906 13.2889 20.5639 13.2223C21.2039 12.9957 21.6706 12.3826 21.6706 11.6628V9.99668C21.6706 9.07699 20.9239 8.33057 20.0039 8.33057Z" fill="#868686"/>
<path d="M8.33724 0H6.67057C5.75057 0 5.00391 0.74642 5.00391 1.66612V6.65113V6.66446C5.00391 7.58416 5.75057 8.33058 6.67057 8.33058H6.68391H7.51057C7.97724 8.33058 8.33724 8.70379 8.33724 9.15697V14.995H11.6706H13.3372V6.66446V0H11.6706H8.33724Z" fill="#868686"/>
<path d="M34.1662 13.3289H30.0062V9.8501C29.7395 9.9434 29.4729 9.99672 29.1795 9.99672C28.8862 9.99672 28.6062 9.9434 28.3529 9.8501V13.3289H25.8462C25.3795 13.3289 25.0195 13.7022 25.0195 14.1553C25.0195 14.6085 25.3929 14.9817 25.8462 14.9817H34.1795C34.6462 14.9817 35.0062 14.6085 35.0062 14.1553C35.0062 13.7022 34.6329 13.3289 34.1662 13.3289Z" fill="#868686"/>
</g>
<defs>
<clipPath id="clip0_598_3582">
<rect width="40" height="40" fill="white"/>
</clipPath>
</defs>
</svg>
