<svg width="40" height="40" viewBox="0 0 40 40" fill="none" xmlns="http://www.w3.org/2000/svg">
<path d="M24.2893 36H15.7106C14.7588 36 14 36.9 14 37.995V39H25.9998V37.995C26.0127 36.9 25.241 36 24.2893 36Z" fill="#868686"/>
<path d="M20 0C16.221 0 12.7694 0.225781 10 0.550781V8.3375C10 9.2625 10.8186 10 11.8145 10H28.1855C29.1951 10 30 9.25 30 8.3375V0.550781C27.2306 0.225781 23.779 0 20 0ZM27.2715 7.5H12.7149C12.2101 7.5 11.8008 7.125 11.8008 6.6625C11.8008 6.2 12.2101 5.825 12.7149 5.825H27.2715C27.7763 5.825 28.1855 6.2 28.1855 6.6625C28.1855 7.125 27.7763 7.5 27.2715 7.5ZM27.2715 4.1625H12.7149C12.2101 4.1625 11.8008 3.7875 11.8008 3.325C11.8008 2.8625 12.2237 2.5 12.7149 2.5H27.2715C27.7763 2.5 28.1855 2.875 28.1855 3.3375C28.1855 3.8 27.7763 4.1625 27.2715 4.1625Z" fill="#868686"/>
<path d="M33.3333 1.1124C32.36 0.887404 31.16 0.687403 29.7733 0.524902V8.33742C29.7733 9.26242 28.9733 9.99993 28 9.99993H12C11.0133 9.99993 10.2267 9.26242 10.2267 8.33742V0.524902C8.84 0.687403 7.62667 0.887404 6.66667 1.1124C4.98667 1.51241 4 1.98741 4 3.33741V39C4 40 4.81333 40 5.82667 40H12.8933C13.3733 40 14 39.4625 14 39V38.3375C14 37.4125 14.6333 37 15.62 37H24.5C25.4867 37 26 37.4125 26 38.3375V39C26 39.4625 26.6267 40 27.1067 40H34.1733C35.1867 40 36 40 36 39.1625V3.33741C36 1.98741 35.0133 1.51241 33.3333 1.1124ZM19.9067 34C13.52 34 9 28.975 9 23C9 17.0125 13.52 12 19.9067 12C26.28 12 31 17.0125 31 23C31 28.975 26.28 34 19.9067 34Z" fill="#BBBBBB"/>
<path fill-rule="evenodd" clip-rule="evenodd" d="M29 23C29 27.9706 24.9706 32 20 32C17.981 32 16.1173 31.3352 14.6159 30.2126L17.5972 27.2313C18.2655 27.7142 19.0971 28 20 28C22.2142 28 24 26.2812 24 24.15C24 23.5146 23.6444 22.6224 23.1453 21.6832L27.2126 17.6159C28.3352 19.1173 29 20.981 29 23ZM22.0887 19.9113L25.8444 16.1556C24.2719 14.8116 22.2308 14 20 14C15.0294 14 11 18.0294 11 23C11 25.2308 11.8116 27.2719 13.1556 28.8444L16.3246 25.6754C16.1156 25.208 16 24.6924 16 24.15C16 22.0187 20 17 20 17C20 17 21.06 18.33 22.0887 19.9113Z" fill="#BBBBBB"/>
<path fill-rule="evenodd" clip-rule="evenodd" d="M17.5972 27.2313C18.2655 27.7142 19.0972 28 20 28C22.2142 28 24 26.2812 24 24.15C24 23.5146 23.6444 22.6224 23.1453 21.6831L17.5972 27.2313ZM22.0886 19.9113C21.0599 18.33 20 17 20 17C20 17 16 22.0187 16 24.15C16 24.6924 16.1156 25.208 16.3246 25.6754L22.0886 19.9113Z" fill="#4F4F4F"/>
</svg>
