<svg width="40" height="40" viewBox="0 0 40 40" fill="none" xmlns="http://www.w3.org/2000/svg">
<path d="M32 2.5C28.125 2.5 25 5.625 25 9.5C25 13.375 28.125 16.5 32 16.5C35.875 16.5 39 13.375 39 9.5C39 5.625 35.8625 2.5 32 2.5ZM35.6 13.9625H33.475V10.2875H30.5375V13.9625H28.4V5.0375H30.5375V8.425H33.475V5.0375H35.6V13.9625Z" fill="#4F4F4F"/>
<path d="M40 16.6496V25.6145C40 28.3137 37.7625 30.5 35 30.5V17.8588C36.825 17.2237 38.3875 16.0389 39.4625 14.5C39.7875 15.1473 40 15.8679 40 16.6496Z" fill="#BBBBBB"/>
<path d="M32.0031 18.176C29.5406 18.176 27.3281 17.1975 25.7031 15.6245H12.5031C12.0406 15.6245 11.6781 15.2529 11.6781 14.7947C11.6781 14.3364 12.0531 13.9772 12.5031 13.9772H24.3781C23.9031 13.2216 23.5406 12.3918 23.3031 11.5H8.32812V30.5H33.3281V18.0769C32.9031 18.1389 32.4531 18.176 32.0031 18.176ZM29.1656 28.0104H12.5031C12.0406 28.0104 11.6781 27.6389 11.6781 27.1806C11.6781 26.7223 12.0531 26.3631 12.5031 26.3631H29.1781C29.6406 26.3631 30.0031 26.7347 30.0031 27.1806C30.0031 27.6389 29.6281 28.0104 29.1656 28.0104ZM29.1656 23.8735H12.5031C12.0406 23.8735 11.6781 23.502 11.6781 23.0561C11.6781 22.5978 12.0531 22.2262 12.5031 22.2262H29.1781C29.6406 22.2262 30.0031 22.5978 30.0031 23.0561C30.0031 23.5143 29.6281 23.8735 29.1656 23.8735ZM29.1656 19.749H12.5031C12.0406 19.749 11.6781 19.3774 11.6781 18.9316C11.6781 18.4733 12.0531 18.1141 12.5031 18.1141H29.1781C29.6406 18.1141 30.0031 18.4857 30.0031 18.9316C30.0031 19.3774 29.6281 19.749 29.1656 19.749Z" fill="#868686"/>
<path d="M13.5588 34.5H10.0817H5.65391C4.74231 34.5 4 35.1405 4 35.927V36.073C4 36.8595 4.74231 37.5 5.65391 37.5H35.3461C36.2577 37.5 37 36.8595 37 36.073V35.927C37 35.1405 36.2577 34.5 35.3461 34.5H30.9183H27.4412H13.5588Z" fill="#BBBBBB"/>
<path d="M14 30.5H11V34.5H14V30.5Z" fill="#BBBBBB"/>
<path d="M31 30.5H28V34.5H31V30.5Z" fill="#BBBBBB"/>
<path d="M6.66074 11.5C5.28542 11.5 4.16016 12.6155 4.16016 13.9788V28.0212C4.16016 29.3845 5.28542 30.5 6.66074 30.5V11.5Z" fill="#BBBBBB"/>
<path d="M0 18.0375V23.9625C0 25.3581 1.12526 26.5 2.50058 26.5V15.5C1.11276 15.5 0 16.6292 0 18.0375Z" fill="#BBBBBB"/>
<path d="M22.7021 9.5H22.9883V9.35C22.9883 8.95 22.881 8.5625 22.7021 8.2375V8.225C22.3205 7.5 21.593 7 20.7464 7H18.2302C16.99 7 15.9883 8.05 15.9883 9.35V9.5H22.7021Z" fill="#BBBBBB"/>
</svg>
