<svg width="40" height="40" viewBox="0 0 40 40" fill="none" xmlns="http://www.w3.org/2000/svg">
<path d="M3 29C1.33708 29 0 24.9632 0 19.9939C0 15.0245 1.33708 11 3 11V29Z" fill="#BBBBBB"/>
<path d="M11.6627 11V7.8375C11.6627 7.375 11.2877 7 10.8377 7H7.5002C7.0377 7 6.6627 7.375 6.6627 7.8375V11H4V29H26.6627V32.175C26.6627 32.625 27.0377 33 27.5002 33H30.8377C31.2877 33 31.6627 32.625 31.6627 32.175V29H36.0002V11H11.6627ZM21.1502 21.8249C20.9627 22.1749 20.6252 22.4124 20.2377 22.4374L19.6502 22.4499C19.4502 23.0249 19.1627 23.5624 18.8127 24.0499C18.6877 24.2124 18.5627 24.3624 18.4252 24.5124C17.2252 25.8499 15.5252 26.6124 13.7502 26.6124C13.4627 26.6124 13.1752 26.5874 12.8877 26.5499C9.7877 26.1374 7.4627 23.3749 7.4627 20.1249V14.4874C7.4627 13.7749 8.0377 13.1999 8.7502 13.1999H9.5877C10.3002 13.1999 10.8752 13.7749 10.8752 14.4874V20.0749C10.8752 21.4999 11.8002 22.7749 13.0877 23.1124C13.3002 23.1624 13.5252 23.1999 13.7502 23.1999C14.0002 23.1999 14.2377 23.1624 14.4877 23.0874C14.7502 23.0124 14.9877 22.9124 15.2127 22.7749C15.4002 22.6624 15.5752 22.5249 15.7377 22.3749C15.4502 22.2749 15.0002 22.0999 14.8752 21.8374C14.6877 21.4624 14.7252 21.0124 14.9752 20.6749L17.0127 17.9749C17.2127 17.6999 17.7752 17.5124 18.1252 17.5124C18.4752 17.5124 18.8002 17.6874 19.0127 17.9624L21.0377 20.6624C21.2877 20.9999 21.3377 21.4499 21.1502 21.8249ZM32.0377 23.2999L30.0127 26.0124C29.8002 26.2874 29.4752 26.4499 29.1252 26.4499C28.7752 26.4499 28.4502 26.2874 28.2377 26.0124L26.2127 23.2999C25.9502 22.9624 25.9127 22.5249 26.1002 22.1374C26.2877 21.7624 26.6752 21.5249 27.1002 21.5249H27.4127V19.6374C27.4127 18.1124 26.3502 16.8249 24.9252 16.6374C24.8002 16.6249 24.6752 16.6124 24.5377 16.6124C23.6502 16.6124 22.8252 17.0249 22.2752 17.7374C22.0252 18.0624 21.6502 18.2499 21.2502 18.2499C20.8502 18.2499 20.4627 18.0499 20.2252 17.7249L19.7127 17.0499C19.5252 16.7374 19.4502 16.5124 19.4502 16.2749C19.4502 16.0124 19.5252 15.7749 19.6752 15.5374L19.7127 15.4999L19.8627 15.3124C21.0502 13.9624 22.7627 13.1999 24.5377 13.1999C24.7252 13.1999 24.9252 13.1999 25.1127 13.2249C28.3252 13.4999 30.8377 16.3499 30.8377 19.7124V21.5249H31.1502C31.5752 21.5249 31.9627 21.7624 32.1502 22.1374C32.3377 22.5249 32.3002 22.9624 32.0377 23.2999Z" fill="#BBBBBB"/>
<path d="M20.2359 22.4372C20.6234 22.4122 20.9609 22.1747 21.1484 21.8247C21.3359 21.4497 21.2859 20.9997 21.0359 20.6622L19.0109 17.9622C18.7984 17.6872 18.4734 17.5122 18.1234 17.5122C17.7734 17.5122 17.2109 17.6997 17.0109 17.9747L14.9734 20.6747C14.7234 21.0122 14.6859 21.4622 14.8734 21.8372C14.9984 22.0997 15.4484 22.2747 15.7359 22.3747C15.5734 22.5247 15.3984 22.6622 15.2109 22.7747C14.9859 22.9122 14.7484 23.0122 14.4859 23.0872C14.2359 23.1622 13.9984 23.1997 13.7484 23.1997C13.5234 23.1997 13.2984 23.1622 13.0859 23.1122C11.7984 22.7747 10.8734 21.4997 10.8734 20.0747V14.4872C10.8734 13.7747 10.2984 13.1997 9.58594 13.1997H8.74844C8.03594 13.1997 7.46094 13.7747 7.46094 14.4872V20.1247C7.46094 23.3747 9.78594 26.1372 12.8859 26.5497C13.1734 26.5872 13.4609 26.6122 13.7484 26.6122C15.5234 26.6122 17.2234 25.8497 18.4234 24.5122C18.5609 24.3622 18.6859 24.2122 18.8109 24.0497C19.1609 23.5622 19.4484 23.0247 19.6484 22.4497L20.2359 22.4372Z" fill="#4F4F4F"/>
<path d="M30.0109 26.0122L32.0359 23.2997C32.2984 22.9622 32.3359 22.5247 32.1484 22.1372C31.9609 21.7622 31.5734 21.5247 31.1484 21.5247H30.8359V19.7122C30.8359 16.3497 28.3234 13.4997 25.1109 13.2247C24.9234 13.1997 24.7234 13.1997 24.5359 13.1997C22.7609 13.1997 21.0484 13.9622 19.8609 15.3122L19.7109 15.4997L19.6734 15.5372C19.5234 15.7747 19.4484 16.0122 19.4484 16.2747C19.4484 16.5122 19.5234 16.7372 19.7109 17.0497L20.2234 17.7247C20.4609 18.0497 20.8484 18.2497 21.2484 18.2497C21.6484 18.2497 22.0234 18.0622 22.2734 17.7372C22.8234 17.0247 23.6484 16.6122 24.5359 16.6122C24.6734 16.6122 24.7984 16.6247 24.9234 16.6372C26.3484 16.8247 27.4109 18.1122 27.4109 19.6372V21.5247H27.0984C26.6734 21.5247 26.2859 21.7622 26.0984 22.1372C25.9109 22.5247 25.9484 22.9622 26.2109 23.2997L28.2359 26.0122C28.4484 26.2872 28.7734 26.4497 29.1234 26.4497C29.4734 26.4497 29.7984 26.2872 30.0109 26.0122Z" fill="#4F4F4F"/>
<path fill-rule="evenodd" clip-rule="evenodd" d="M19.6484 22.4497L20.2359 22.4372C20.6234 22.4122 20.9609 22.1747 21.1484 21.8247C21.3359 21.4497 21.2859 20.9997 21.0359 20.6622L19.0109 17.9622C18.7984 17.6872 18.4734 17.5122 18.1234 17.5122C17.7734 17.5122 17.2109 17.6997 17.0109 17.9747L14.9734 20.6747C14.7234 21.0122 14.6859 21.4622 14.8734 21.8372C14.9334 21.9632 15.0684 22.0691 15.2242 22.1562C15.3931 22.2504 15.5865 22.3227 15.7359 22.3747C15.5922 22.5074 15.4387 22.6302 15.2755 22.7347C15.2541 22.7484 15.2326 22.7617 15.2109 22.7747C14.9859 22.9122 14.7484 23.0122 14.4859 23.0872C14.2359 23.1622 13.9984 23.1997 13.7484 23.1997C13.5234 23.1997 13.2984 23.1622 13.0859 23.1122C11.7984 22.7747 10.8734 21.4997 10.8734 20.0747V14.4872C10.8734 13.7747 10.2984 13.1997 9.58594 13.1997H8.74844C8.03594 13.1997 7.46094 13.7747 7.46094 14.4872V20.1247C7.46094 23.3747 9.78594 26.1372 12.8859 26.5497C13.1734 26.5872 13.4609 26.6122 13.7484 26.6122C15.5234 26.6122 17.2234 25.8497 18.4234 24.5122C18.5609 24.3622 18.6859 24.2122 18.8109 24.0497C19.1609 23.5622 19.4484 23.0247 19.6484 22.4497ZM18.4096 23.7514C18.7317 23.3015 18.9941 22.8088 19.1762 22.2854L19.2904 21.9572L20.2127 21.9376C20.4038 21.922 20.5904 21.8029 20.7042 21.595C20.7992 21.3991 20.777 21.1535 20.6349 20.9609C20.6347 20.9605 20.6344 20.9602 20.6342 20.9598L18.6134 18.2655C18.4866 18.1029 18.3035 18.0122 18.1234 18.0122C18.0232 18.0122 17.857 18.0424 17.6918 18.1065C17.5142 18.1754 17.4311 18.2471 17.4153 18.2688L17.4101 18.2759L15.3741 20.9738C15.2381 21.1587 15.217 21.4063 15.3207 21.6136C15.3235 21.6169 15.331 21.6255 15.3452 21.6377C15.3747 21.6628 15.4198 21.6935 15.4823 21.7275C15.6089 21.7962 15.7613 21.8542 15.9002 21.9025L16.6879 22.1764L16.0751 22.7421C15.8941 22.9091 15.6926 23.0686 15.47 23.2024C15.2032 23.3652 14.9248 23.4816 14.6264 23.5671C14.3355 23.6541 14.0505 23.6997 13.7484 23.6997C13.4702 23.6997 13.2038 23.6536 12.9714 23.5989L12.9591 23.596C11.4291 23.195 10.3734 21.7028 10.3734 20.0747V14.4872C10.3734 14.0508 10.0223 13.6997 9.58594 13.6997H8.74844C8.31208 13.6997 7.96094 14.0508 7.96094 14.4872V20.1247C7.96094 23.1404 10.1161 25.6764 12.9512 26.054C13.225 26.0897 13.4895 26.1122 13.7484 26.1122C15.3798 26.1122 16.945 25.4113 18.0513 24.1783L18.0548 24.1743C18.1799 24.0379 18.2942 23.9011 18.4096 23.7514ZM31.6413 22.9927C31.7808 22.8134 31.8068 22.5817 31.6998 22.358C31.5979 22.1567 31.3861 22.0247 31.1484 22.0247H30.3359V19.7122C30.3359 16.5912 28.0045 13.9742 25.0683 13.7229L25.0565 13.7219L25.0449 13.7203C24.896 13.7005 24.7299 13.6997 24.5359 13.6997C22.9072 13.6997 21.3354 14.3981 20.2439 15.6339L20.0841 15.8337L20.0696 15.8481C19.9832 15.9978 19.9484 16.1319 19.9484 16.2747C19.9484 16.384 19.9756 16.514 20.1262 16.7698L20.6272 17.4296C20.7725 17.6285 21.0112 17.7497 21.2484 17.7497C21.4887 17.7497 21.719 17.6379 21.8771 17.4324C22.5194 16.6004 23.4896 16.1122 24.5359 16.1122C24.6985 16.1122 24.8445 16.1268 24.9656 16.1389L24.9809 16.1405L24.9887 16.1415C26.687 16.3649 27.9109 17.8869 27.9109 19.6372V22.0247H27.0984C26.8608 22.0247 26.649 22.1567 26.547 22.358C26.4401 22.5817 26.4661 22.8134 26.6056 22.9927L26.6117 23.0005L28.6337 25.7093C28.753 25.8618 28.9317 25.9497 29.1234 25.9497C29.3152 25.9497 29.4939 25.8618 29.6131 25.7093L31.6413 22.9927ZM30.0109 26.0122C29.7984 26.2872 29.4734 26.4497 29.1234 26.4497C28.7734 26.4497 28.4484 26.2872 28.2359 26.0122L26.2109 23.2997C25.9484 22.9622 25.9109 22.5247 26.0984 22.1372C26.2859 21.7622 26.6734 21.5247 27.0984 21.5247H27.4109V19.6372C27.4109 18.1122 26.3484 16.8247 24.9234 16.6372C24.7984 16.6247 24.6734 16.6122 24.5359 16.6122C23.6484 16.6122 22.8234 17.0247 22.2734 17.7372C22.0234 18.0622 21.6484 18.2497 21.2484 18.2497C20.8484 18.2497 20.4609 18.0497 20.2234 17.7247L19.7109 17.0497C19.5234 16.7372 19.4484 16.5122 19.4484 16.2747C19.4484 16.0122 19.5234 15.7747 19.6734 15.5372L19.7109 15.4997L19.8609 15.3122C21.0484 13.9622 22.7609 13.1997 24.5359 13.1997C24.7234 13.1997 24.9234 13.1997 25.1109 13.2247C28.3234 13.4997 30.8359 16.3497 30.8359 19.7122V21.5247H31.1484C31.5734 21.5247 31.9609 21.7622 32.1484 22.1372C32.3359 22.5247 32.2984 22.9622 32.0359 23.2997L30.0109 26.0122Z" fill="#BBBBBB"/>
<path d="M37 11C38.6517 11 40 15.0273 40 20C40 24.9727 38.6629 29 37 29V11Z" fill="#BBBBBB"/>
<path d="M29.5021 39.8489C29.3572 40.0504 29.0675 40.0504 28.9227 39.8489L27.2766 37.6192L25.7754 35.591C25.591 35.3492 25.7622 35 26.0651 35H29.1992H32.3333C32.6362 35 32.8074 35.3492 32.623 35.591L31.1218 37.6192L29.5021 39.8489Z" fill="#4F4F4F"/>
<path d="M9.27654 4.84889C9.13168 5.05037 8.84198 5.05037 8.69712 4.84889L7.06422 2.61921L5.57617 0.591C5.39181 0.349227 5.563 0 5.86588 0H9H12.1341C12.437 0 12.6082 0.349227 12.4238 0.591L10.9358 2.61921L9.27654 4.84889Z" fill="#4F4F4F"/>
</svg>
