<svg width="40" height="40" viewBox="0 0 40 40" fill="none" xmlns="http://www.w3.org/2000/svg">
<path d="M24.9961 36.6526H23.3295V33.3193H17.4896V36.6526H15.823C14.4364 36.6526 13.3164 37.7726 13.3164 39.1592V39.5725C13.3164 39.7992 13.5031 39.9858 13.7297 39.9858H27.0627C27.2894 39.9858 27.476 39.7992 27.476 39.5725V39.1592C27.4894 37.7726 26.3827 36.6526 24.9961 36.6526Z" fill="#868686"/>
<path d="M36.6657 5.6666C37.039 5.6666 37.3323 5.95992 37.3323 6.33325V28.3327C37.3323 28.706 37.039 28.9994 36.6657 28.9994H3.33325C2.95992 28.9994 2.6666 28.706 2.6666 28.3327V6.33325C2.6666 5.95992 2.95992 5.6666 3.33325 5.6666H36.6657ZM36.6657 3H3.33325C1.49329 3 0 4.49329 0 6.33325L0 28.3327C0 30.1727 1.49329 31.666 3.33325 31.666H36.6657C38.5057 31.666 39.9989 30.1727 39.9989 28.3327V6.33325C39.9989 4.47996 38.5057 3 36.6657 3Z" fill="#BBBBBB"/>
<path d="M35.1373 7H35.1239H35.1106H4.97805C4.53806 7 4.19141 7.34666 4.19141 7.75998V26.4129C4.19141 26.7195 4.4314 26.9595 4.73806 26.9595C4.79139 26.9595 4.83139 26.9462 4.88472 26.9329L5.13805 26.7862L35.2706 7.34666L35.2839 7.33332C35.3239 7.29333 35.3372 7.25333 35.3372 7.18666C35.3106 7.09333 35.2306 7.01333 35.1373 7Z" fill="#E1E1E1"/>
</svg>
