<svg width="40" height="40" viewBox="0 0 40 40" fill="none" xmlns="http://www.w3.org/2000/svg">
<path d="M4 7V39C4 39.5467 4.45333 40 5 40H35C35.5467 40 36 39.5467 36 39V7H4ZM20 35C13.92 35 9 30.08 9 24C9 17.92 13.92 13 20 13C26.08 13 31 17.92 31 24C31 30.08 26.08 35 20 35Z" fill="#BBBBBB"/>
<path d="M24 25.65C24 27.7813 22.2143 29.5 20 29.5C17.7857 29.5 16 27.7813 16 25.65C16 23.5188 20 18.5 20 18.5C20 18.5 24 23.5188 24 25.65Z" fill="#4F4F4F"/>
<path d="M20 13C13.9274 13 9 17.9274 9 24C9 30.0726 13.9274 35 20 35C26.0726 35 31 30.0726 31 24C31 17.9274 26.0726 13 20 13ZM20 32.6295C15.2324 32.6295 11.3705 28.7676 11.3705 24C11.3705 19.2324 15.2324 15.3705 20 15.3705C24.7676 15.3705 28.6295 19.2324 28.6295 24C28.6295 28.7676 24.7676 32.6295 20 32.6295Z" fill="#C3C3C3"/>
<path d="M20 13C13.9274 13 9 17.9274 9 24C9 30.0726 13.9274 35 20 35C26.0726 35 31 30.0726 31 24C31 17.9274 26.0726 13 20 13ZM20 32.6295C15.2324 32.6295 11.3705 28.7676 11.3705 24C11.3705 19.2324 15.2324 15.3705 20 15.3705C24.7676 15.3705 28.6295 19.2324 28.6295 24C28.6295 28.7676 24.7676 32.6295 20 32.6295Z" fill="#868686"/>
<path fill-rule="evenodd" clip-rule="evenodd" d="M5 0C4.44772 0 4 0.447715 4 1V7H36V1C36 0.447715 35.5523 0 35 0H5ZM8 2C7.44772 2 7 2.44772 7 3V4C7 4.55228 7.44772 5 8 5H15C15.5523 5 16 4.55228 16 4V3C16 2.44772 15.5523 2 15 2H8ZM29 3.5C29 4.32843 28.3284 5 27.5 5C26.6716 5 26 4.32843 26 3.5C26 2.67157 26.6716 2 27.5 2C28.3284 2 29 2.67157 29 3.5ZM31.5 5C32.3284 5 33 4.32843 33 3.5C33 2.67157 32.3284 2 31.5 2C30.6716 2 30 2.67157 30 3.5C30 4.32843 30.6716 5 31.5 5Z" fill="#868686"/>
</svg>
