<svg width="40" height="40" viewBox="0 0 40 40" fill="none" xmlns="http://www.w3.org/2000/svg">
<g clip-path="url(#clip0_594_9216)">
<path fill-rule="evenodd" clip-rule="evenodd" d="M20 5C11.7157 5 5 11.7157 5 20C5 28.2843 11.7157 35 20 35V5Z" fill="#94979D"/>
<path fill-rule="evenodd" clip-rule="evenodd" d="M20 5C28.2843 5 35 11.7157 35 20C35 28.2843 28.2843 35 20 35V5Z" fill="#BBBDC0"/>
<circle cx="20" cy="20" r="19.25" stroke="#94979D" stroke-width="1.5"/>
</g>
<defs>
<clipPath id="clip0_594_9216">
<rect width="40" height="40" fill="white"/>
</clipPath>
</defs>
</svg>
