<svg width="40" height="40" viewBox="0 0 40 40" fill="none" xmlns="http://www.w3.org/2000/svg">
<g clip-path="url(#clip0_594_9188)">
<rect width="40" height="40" rx="2" fill="#767980"/>
<circle cx="10" cy="26" r="4" stroke="#D2D3D4" stroke-width="2"/>
<circle cx="30" cy="26" r="4" stroke="#D2D3D4" stroke-width="2"/>
<rect x="33" y="25" width="7" height="2" fill="#D9D9D9"/>
<rect y="25" width="7" height="2" fill="#D9D9D9"/>
<rect x="12.0312" y="22.0005" width="11.3598" height="2" transform="rotate(-45 12.0312 22.0005)" fill="#D9D9D9"/>
<path d="M28.9996 8.19229C28.9996 8.60375 28.8994 8.9597 28.6988 9.26014C28.4982 9.56058 28.207 9.79243 27.8253 9.95571C27.45 10.119 27.0003 10.2006 26.4762 10.2006C26.2239 10.2006 25.9813 10.1843 25.7483 10.1517C25.5219 10.1255 25.3051 10.0831 25.0981 10.0243C24.8975 9.96551 24.7099 9.89367 24.5352 9.80876V8.63314C24.8263 8.76377 25.1466 8.88459 25.496 8.99563C25.8454 9.10012 26.2013 9.15237 26.5636 9.15237C26.8418 9.15237 27.0683 9.11645 27.243 9.04461C27.4241 8.96624 27.5568 8.86174 27.6409 8.73111C27.725 8.59396 27.7671 8.43721 27.7671 8.26086C27.7671 8.06493 27.7121 7.89838 27.6021 7.76123C27.4921 7.62407 27.3303 7.49671 27.1168 7.37915C26.9033 7.26159 26.638 7.13749 26.321 7.00687C26.1074 6.91543 25.8972 6.8142 25.6901 6.70317C25.4895 6.58561 25.3084 6.44519 25.1466 6.28191C24.9848 6.11862 24.8554 5.92595 24.7584 5.70389C24.6613 5.48183 24.6128 5.22058 24.6128 4.92015C24.6128 4.52174 24.7066 4.17885 24.8943 3.89148C25.0884 3.60411 25.3569 3.38531 25.6998 3.23509C26.0492 3.08487 26.4536 3.00977 26.913 3.00977C27.2818 3.00977 27.628 3.04895 27.9515 3.12733C28.275 3.2057 28.5953 3.31673 28.9123 3.46042L28.5144 4.46949C28.2297 4.3454 27.9547 4.24743 27.6894 4.17559C27.4241 4.10374 27.1524 4.06782 26.8742 4.06782C26.6542 4.06782 26.4665 4.10374 26.3112 4.17559C26.156 4.2409 26.0395 4.3356 25.9619 4.4597C25.8842 4.58379 25.8454 4.72748 25.8454 4.89076C25.8454 5.08016 25.8939 5.24018 25.991 5.3708C26.088 5.50142 26.2368 5.62552 26.4374 5.74308C26.6445 5.85411 26.9097 5.98147 27.2333 6.12516C27.6085 6.28844 27.9256 6.45825 28.1844 6.63459C28.4432 6.81093 28.6438 7.0232 28.7861 7.27138C28.9285 7.51957 28.9996 7.82654 28.9996 8.19229Z" fill="#F5F5F5"/>
<path d="M23.4947 6.59544C23.4947 7.13753 23.4268 7.63063 23.2909 8.07476C23.1615 8.51235 22.9609 8.89116 22.6891 9.21119C22.4239 9.53122 22.0842 9.77614 21.6701 9.94595C21.2625 10.1158 20.7837 10.2007 20.2337 10.2007C19.6772 10.2007 19.192 10.1158 18.7779 9.94595C18.3702 9.76961 18.0338 9.52469 17.7685 9.21119C17.5032 8.89116 17.3026 8.50908 17.1668 8.06496C17.0374 7.62084 16.9727 7.12773 16.9727 6.58564C16.9727 5.86067 17.0891 5.23041 17.3221 4.69485C17.5615 4.15929 17.9206 3.74456 18.3994 3.45065C18.8846 3.15022 19.4993 3 20.2434 3C20.9745 3 21.5795 3.15022 22.0583 3.45065C22.5371 3.74456 22.8962 4.16256 23.1356 4.70465C23.375 5.24021 23.4947 5.87047 23.4947 6.59544ZM18.2829 6.59544C18.2829 7.12446 18.3508 7.57838 18.4867 7.95719C18.629 8.336 18.8426 8.62664 19.1273 8.82911C19.4184 9.03158 19.7872 9.13281 20.2337 9.13281C20.6931 9.13281 21.0651 9.03158 21.3498 8.82911C21.6345 8.62664 21.8448 8.336 21.9807 7.95719C22.1165 7.57838 22.1845 7.12446 22.1845 6.59544C22.1845 5.80516 22.0324 5.18469 21.7283 4.73404C21.4242 4.28338 20.9292 4.05806 20.2434 4.05806C19.7905 4.05806 19.4184 4.15929 19.1273 4.36176C18.8426 4.56423 18.629 4.85487 18.4867 5.23368C18.3508 5.61249 18.2829 6.06641 18.2829 6.59544Z" fill="#F5F5F5"/>
<path d="M14.2804 4.06782C13.9634 4.06782 13.6819 4.1266 13.4361 4.24417C13.1902 4.36173 12.9799 4.53154 12.8052 4.7536C12.637 4.97566 12.5076 5.24344 12.417 5.55694C12.3329 5.87044 12.2908 6.22312 12.2908 6.615C12.2908 7.14403 12.362 7.59795 12.5043 7.97676C12.6467 8.34904 12.8634 8.63641 13.1546 8.83888C13.4522 9.04134 13.8243 9.14258 14.2707 9.14258C14.5684 9.14258 14.8531 9.11319 15.1248 9.05441C15.403 8.98909 15.6942 8.90419 15.9983 8.79969V9.86754C15.7136 9.98511 15.4257 10.07 15.1345 10.1223C14.8498 10.1745 14.5198 10.2006 14.1446 10.2006C13.4328 10.2006 12.844 10.0537 12.3782 9.75978C11.9123 9.45934 11.5661 9.04134 11.3397 8.50578C11.1132 7.96369 11 7.33017 11 6.6052C11 6.07617 11.0712 5.59286 11.2135 5.15527C11.3623 4.71768 11.5726 4.33887 11.8444 4.01884C12.1226 3.69881 12.4655 3.45062 12.8731 3.27428C13.2808 3.09794 13.7499 3.00977 14.2804 3.00977C14.6298 3.00977 14.9728 3.05222 15.3092 3.13712C15.6521 3.2155 15.9724 3.32653 16.27 3.47022L15.843 4.49888C15.5971 4.38785 15.3416 4.28988 15.0763 4.20498C14.8175 4.11354 14.5522 4.06782 14.2804 4.06782Z" fill="#F5F5F5"/>
</g>
<defs>
<clipPath id="clip0_594_9188">
<rect width="40" height="40" fill="white"/>
</clipPath>
</defs>
</svg>
