<svg width="18" height="18" viewBox="0 0 18 18" fill="none" xmlns="http://www.w3.org/2000/svg">
<path fill-rule="evenodd" clip-rule="evenodd" d="M2 0H10.0001L16 6L16 0.3V18H2V0Z" fill="#D8D8D9"/>
<path fill-rule="evenodd" clip-rule="evenodd" d="M15.9999 6H10L10 0L15.9999 6Z" fill="#91949E"/>
<path d="M13 10H4V9H13V10Z" fill="#9A9EA4"/>
<path d="M13 12H4V11H13V12Z" fill="#9A9EA4"/>
<path d="M9 14H4V13H9V14Z" fill="#9A9EA4"/>
</svg>
