<svg width="22" height="22" viewBox="0 0 22 22" fill="none" xmlns="http://www.w3.org/2000/svg">
<rect x="5" y="10.6001" width="4" height="1.2" transform="rotate(-180 5 10.6001)" fill="#9A9EA4"/>
<rect x="21" y="10.6001" width="4" height="1.2" transform="rotate(-180 21 10.6001)" fill="#9A9EA4"/>
<circle cx="11" cy="10" r="7" stroke="#9A9EA4" stroke-width="2"/>
<rect x="21.0156" y="17.896" width="3" height="5.5" rx="1" transform="rotate(135 21.0156 17.896)" fill="#9A9EA4"/>
<path d="M16 9.50757H13.3889L11.0722 11.4517L7.66667 8L6 9.23981V10.6717L7.55556 9.50757L11 13L13.7778 10.6717H16V9.50757Z" fill="#9A9EA4"/>
</svg>
