<svg width="22" height="22" viewBox="0 0 22 22" fill="none" xmlns="http://www.w3.org/2000/svg">
<path fill-rule="evenodd" clip-rule="evenodd" d="M11 3C10.4477 3 10 3.44772 10 4V10H4C3.44772 10 3 10.4477 3 11C3 11.5523 3.44772 12 4 12H10V15C10 15.0565 10.0047 15.1119 10.0137 15.1659C8.84135 15.5738 8 16.6887 8 18C8 19.6569 9.34315 21 11 21C12.6569 21 14 19.6569 14 18C14 16.6887 13.1586 15.5738 11.9863 15.1659C11.9953 15.1119 12 15.0565 12 15V12H15C15.0565 12 15.1119 11.9953 15.1659 11.9863C15.5738 13.1586 16.6887 14 18 14C19.6569 14 21 12.6569 21 11C21 9.34315 19.6569 8 18 8C16.6887 8 15.5738 8.84136 15.1659 10.0137C15.1119 10.0047 15.0565 10 15 10H12V4C12 3.44772 11.5523 3 11 3ZM12.5 18C12.5 18.8284 11.8284 19.5 11 19.5C10.1716 19.5 9.5 18.8284 9.5 18C9.5 17.1716 10.1716 16.5 11 16.5C11.8284 16.5 12.5 17.1716 12.5 18ZM19.5 11C19.5 10.1716 18.8284 9.5 18 9.5C17.1716 9.5 16.5 10.1716 16.5 11C16.5 11.8284 17.1716 12.5 18 12.5C18.8284 12.5 19.5 11.8284 19.5 11Z" fill="#0086EE"/>
<rect x="2" y="1" width="3" height="1" fill="#0086EE"/>
<rect x="7" y="1" width="3" height="1" fill="#0086EE"/>
<rect x="12" y="1" width="3" height="1" fill="#0086EE"/>
<rect x="17" y="1" width="3" height="1" fill="#0086EE"/>
</svg>
