<svg width="22" height="22" viewBox="0 0 22 22" fill="none" xmlns="http://www.w3.org/2000/svg">
<rect x="8.5" y="1" width="5" height="5" fill="#0086EE"/>
<rect width="5" height="5" transform="matrix(1 0 0 -1 8.5 21)" fill="#0086EE"/>
<rect x="6" y="21" width="5" height="5" transform="rotate(-180 6 21)" fill="#0086EE"/>
<rect x="21" y="21" width="5" height="5" transform="rotate(-180 21 21)" fill="#0086EE"/>
<path d="M1 10H21V12H1V10Z" fill="#0086EE"/>
<path d="M11.5 4L11.5 10L10.5 10L10.5 4L11.5 4Z" fill="#0086EE"/>
<path d="M11.5 18L11.5 12L10.5 12L10.5 18L11.5 18Z" fill="#0086EE"/>
<path d="M3 18L3 12L4 12L4 18L3 18Z" fill="#0086EE"/>
<path d="M18 18L18 12L19 12L19 18L18 18Z" fill="#0086EE"/>
</svg>
