<svg width="22" height="22" viewBox="0 0 22 22" fill="none" xmlns="http://www.w3.org/2000/svg">
<g clip-path="url(#clip0_661_1203)">
<rect x="1" y="19" width="20" height="2" fill="#9A9EA4"/>
<path d="M3 7.55L4.67529 8.45L5.35294 7H16.6471L17.3247 8.44L19 7.55L17.8047 5H4.18588L3 7.55Z" fill="#9A9EA4"/>
<rect x="12.9062" y="11" width="1.2" height="10.3194" transform="rotate(50.0208 12.9062 11)" fill="#9A9EA4"/>
<rect width="1.2" height="8.7142" transform="matrix(-0.639085 0.769136 0.769136 0.639085 8.64062 8)" fill="#9A9EA4"/>
<path fill-rule="evenodd" clip-rule="evenodd" d="M10.6818 0L11 -1L11.3182 0H10.6818ZM10.3636 1L4 21H18L11.6364 1H10.3636ZM6.55173 18.977L11 4.99673L15.4483 18.977H6.55173Z" fill="#9A9EA4"/>
</g>
<defs>
<clipPath id="clip0_661_1203">
<rect width="22" height="22" fill="white"/>
</clipPath>
</defs>
</svg>
