<svg width="40" height="40" viewBox="0 0 40 40" fill="none" xmlns="http://www.w3.org/2000/svg">
<g clip-path="url(#clip0_598_3828)">
<mask id="mask0_598_3828" style="mask-type:luminance" maskUnits="userSpaceOnUse" x="0" y="0" width="40" height="40">
<path d="M40 0H0V40H40V0Z" fill="white"/>
</mask>
<g mask="url(#mask0_598_3828)">
<path d="M14 0H3C1.34315 0 0 1.34315 0 3V14C0 15.6569 1.34315 17 3 17H14C15.6569 17 17 15.6569 17 14V3C17 1.34315 15.6569 0 14 0Z" fill="#BBBBBB"/>
<path d="M14 23H3C1.34315 23 0 24.3431 0 26V37C0 38.6569 1.34315 40 3 40H14C15.6569 40 17 38.6569 17 37V26C17 24.3431 15.6569 23 14 23Z" fill="#BBBBBB"/>
<path d="M37 0H26C24.3431 0 23 1.34315 23 3V14C23 15.6569 24.3431 17 26 17H37C38.6569 17 40 15.6569 40 14V3C40 1.34315 38.6569 0 37 0Z" fill="#BBBBBB"/>
<path d="M37 23H26C24.3431 23 23 24.3431 23 26V37C23 38.6569 24.3431 40 26 40H37C38.6569 40 40 38.6569 40 37V26C40 24.3431 38.6569 23 37 23Z" fill="#BBBBBB"/>
</g>
</g>
<defs>
<clipPath id="clip0_598_3828">
<rect width="40" height="40" fill="white"/>
</clipPath>
</defs>
</svg>
