<svg width="16" height="16" viewBox="0 0 16 16" fill="none" xmlns="http://www.w3.org/2000/svg">
<g clip-path="url(#clip0_1_1013)">
<mask id="mask0_1_1013" style="mask-type:luminance" maskUnits="userSpaceOnUse" x="0" y="0" width="16" height="16">
<path d="M16 0H0V16H16V0Z" fill="white"/>
</mask>
<g mask="url(#mask0_1_1013)">
<path fill-rule="evenodd" clip-rule="evenodd" d="M7 3H13V9H9V13H3V7H7V3Z" fill="#FFC44E"/>
<path d="M10.5 15.5H15.5V10.5H10.5V15.5Z" stroke="#BEC4DA"/>
<path d="M0.5 5.5L5.5 5.5L5.5 0.5L0.5 0.5L0.5 5.5Z" stroke="#BEC4DA"/>
</g>
</g>
<defs>
<clipPath id="clip0_1_1013">
<rect width="16" height="16" fill="white"/>
</clipPath>
</defs>
</svg>
