<svg width="16" height="16" viewBox="0 0 16 16" fill="none" xmlns="http://www.w3.org/2000/svg">
<path d="M3 6H16L13 15H0L3 6Z" fill="#FFC44E"/>
<path d="M14 3H0V5H14V3Z" fill="#E2BC70"/>
<path d="M0 2H2V5L0 11V2Z" fill="#E2BC70"/>
<path d="M7 2H0V3H7V2Z" fill="#E2BC70"/>
<path d="M6 1H0V2H6V1Z" fill="#E2BC70"/>
</svg>
