<svg width="40" height="40" viewBox="0 0 40 40" fill="none" xmlns="http://www.w3.org/2000/svg">
<path d="M27.5 36H12.5C11.125 36 10 35.1 10 34H30C30 35.1 28.875 36 27.5 36Z" fill="#868686"/>
<path d="M14.66 40H13.33C13.15 40 13 39.8198 13 39.6036V36H15V39.6036C14.99 39.8198 14.84 40 14.66 40Z" fill="#BBBBBB"/>
<path d="M26.66 40H25.33C25.15 40 25 39.8198 25 39.6036V36H27V39.6036C26.99 39.8198 26.84 40 26.66 40Z" fill="#BBBBBB"/>
<path d="M30.7146 0H9.29775C7.48213 0 6 1.47244 6 3.30371V19.946V29.6963C6 31.5152 7.46978 33 9.29775 33H30.7022C32.5179 33 34 31.5276 34 29.6963V19.649V3.30371C34 1.47244 32.5302 0 30.7146 0Z" fill="#BBBBBB"/>
<path d="M20 29.6187C21.6569 29.6187 23 28.2755 23 26.6187C23 24.9618 21.6569 23.6187 20 23.6187C18.3431 23.6187 17 24.9618 17 26.6187C17 28.2755 18.3431 29.6187 20 29.6187Z" fill="#4F4F4F"/>
<path d="M24.9427 23.4248C24.9427 23.4135 24.9427 23.4135 24.9307 23.4023C24.8826 23.3459 24.8346 23.3008 24.7986 23.2444C24.7265 23.1541 24.6424 23.0639 24.5703 22.9737C24.4983 22.8947 24.4262 22.8271 24.3541 22.7594C24.27 22.6805 24.186 22.6015 24.1019 22.5226C24.0298 22.4549 23.9577 22.3872 23.8737 22.3308C23.7655 22.2406 23.6454 22.1617 23.5373 22.0827C23.4773 22.0376 23.4292 22.0038 23.3692 21.9586C23.189 21.8459 23.0088 21.7444 22.8166 21.6429C22.7686 21.6203 22.7085 21.5977 22.6605 21.5752C22.5163 21.5075 22.3602 21.4398 22.204 21.3835C22.144 21.3609 22.0719 21.3383 22.0118 21.3158C21.8677 21.2707 21.7115 21.2256 21.5554 21.1805C21.4833 21.1579 21.4233 21.1466 21.3512 21.1353C21.195 21.1015 21.0269 21.0789 20.8707 21.0564C20.8107 21.0451 20.7506 21.0338 20.6905 21.0338C20.4623 21.0113 20.2341 21 20.0059 21C19.7776 21 19.5494 21.0113 19.3212 21.0338C19.2611 21.0451 19.2011 21.0564 19.141 21.0564C18.9729 21.0789 18.8167 21.1015 18.6606 21.1353C18.5885 21.1466 18.5284 21.1692 18.4564 21.1805C18.3002 21.2143 18.1561 21.2594 17.9999 21.3158C17.9399 21.3383 17.8678 21.3609 17.8077 21.3835C17.6516 21.4398 17.5074 21.5075 17.3513 21.5752C17.3032 21.5977 17.2432 21.6203 17.1951 21.6429C17.0029 21.7331 16.8228 21.8346 16.6426 21.9474C16.5825 21.9812 16.5225 22.0263 16.4744 22.0714C16.3543 22.1504 16.2462 22.2293 16.1381 22.3195C16.066 22.3759 15.994 22.4436 15.9099 22.5113C15.8258 22.5902 15.7417 22.6579 15.6576 22.7481C15.5855 22.8158 15.5135 22.8947 15.4414 22.9624C15.3573 23.0526 15.2853 23.1429 15.2132 23.2331C15.1651 23.2895 15.1171 23.3346 15.0811 23.391C15.0811 23.4023 15.0811 23.4023 15.069 23.4135C14.3964 24.3271 14 25.4211 14 26.6165C14 26.8195 14.1802 26.9887 14.3964 26.9887C14.6126 26.9887 14.7928 26.8195 14.7928 26.6165C14.7928 25.5113 15.1892 24.4962 15.8498 23.6842C15.9099 23.6053 15.9819 23.5263 16.054 23.4474C16.1141 23.3797 16.1741 23.3233 16.2342 23.2556C16.3063 23.188 16.3783 23.1203 16.4504 23.0526C16.5105 22.9962 16.5825 22.9398 16.6426 22.8835C16.7387 22.8045 16.8348 22.7368 16.9309 22.6692C16.9789 22.6353 17.027 22.5902 17.087 22.5564C17.2432 22.4549 17.3993 22.3647 17.5675 22.2857C17.6155 22.2632 17.6636 22.2406 17.7116 22.218C17.8438 22.1617 17.9639 22.1053 18.096 22.0602C18.1561 22.0376 18.2041 22.015 18.2642 22.0038C18.3963 21.9586 18.5284 21.9248 18.6485 21.891C18.7086 21.8797 18.7687 21.8571 18.8287 21.8459C18.9729 21.812 19.105 21.7895 19.2491 21.7782C19.2972 21.7669 19.3572 21.7556 19.4053 21.7556C19.6095 21.7444 19.8017 21.7331 20.0059 21.7331C20.2101 21.7331 20.4023 21.7444 20.5944 21.7669C20.6545 21.7782 20.7026 21.7782 20.7506 21.7895C20.8947 21.812 21.0269 21.8346 21.171 21.8571C21.2311 21.8684 21.2911 21.8797 21.3512 21.9023C21.4833 21.9361 21.6154 21.9699 21.7356 22.015C21.7956 22.0376 21.8557 22.0489 21.9037 22.0714C22.0359 22.1165 22.168 22.1729 22.2881 22.2293C22.3362 22.2519 22.3842 22.2744 22.4322 22.297C22.6004 22.3759 22.7566 22.4662 22.9127 22.5677C22.9608 22.6015 23.0208 22.6353 23.0689 22.6805C23.165 22.7481 23.2611 22.8158 23.3572 22.8947C23.4292 22.9511 23.4893 23.0075 23.5493 23.0639C23.6214 23.1316 23.6935 23.188 23.7655 23.2669C23.8256 23.3346 23.8857 23.391 23.9457 23.4586C24.0178 23.5376 24.0779 23.6165 24.1499 23.6955C24.8106 24.5188 25.207 25.5226 25.207 26.6278C25.207 26.8308 25.3871 27 25.6033 27C25.8196 27 25.9997 26.8308 25.9997 26.6278C26.0117 25.4323 25.6154 24.3271 24.9427 23.4248Z" fill="#4F4F4F"/>
<path d="M19.7072 26.123C19.6344 26.0518 19.5859 25.9568 19.5859 25.8381V24.0217C19.5859 23.808 19.7678 23.6299 19.9859 23.6299C20.2041 23.6299 20.3859 23.808 20.3859 24.0217V25.8381C20.3859 26.0518 20.2041 26.2299 19.9859 26.2299C19.889 26.2299 19.7799 26.1943 19.7072 26.123Z" fill="#E1E1E1"/>
<path d="M23.9955 7H16.0045C15.4498 7 15 6.55224 15 6C15 5.44776 15.4498 5 16.0045 5H23.9955C24.5502 5 25 5.44776 25 6C24.985 6.55224 24.5352 7 23.9955 7Z" fill="#4F4F4F"/>
</svg>
