<svg width="40" height="40" viewBox="0 0 40 40" fill="none" xmlns="http://www.w3.org/2000/svg">
<g clip-path="url(#clip0_598_4546)">
<mask id="mask0_598_4546" style="mask-type:luminance" maskUnits="userSpaceOnUse" x="0" y="0" width="40" height="40">
<path d="M40 0H0V40H40V0Z" fill="white"/>
</mask>
<g mask="url(#mask0_598_4546)">
<path d="M14 0H3C1.34315 0 0 1.34315 0 3V14C0 15.6569 1.34315 17 3 17H14C15.6569 17 17 15.6569 17 14V3C17 1.34315 15.6569 0 14 0Z" fill="#BBBBBB"/>
<path d="M14 23H3C1.34315 23 0 24.3431 0 26V37C0 38.6569 1.34315 40 3 40H14C15.6569 40 17 38.6569 17 37V26C17 24.3431 15.6569 23 14 23Z" fill="#BBBBBB"/>
<path d="M37 0H26C24.3431 0 23 1.34315 23 3V14C23 15.6569 24.3431 17 26 17H37C38.6569 17 40 15.6569 40 14V3C40 1.34315 38.6569 0 37 0Z" fill="#BBBBBB"/>
<path d="M37 23H26C24.3431 23 23 24.3431 23 26V37C23 38.6569 24.3431 40 26 40H37C38.6569 40 40 38.6569 40 37V26C40 24.3431 38.6569 23 37 23Z" fill="#BBBBBB"/>
<path d="M7.89394 5C8.47475 5 8.95139 5.07516 9.32386 5.22549C9.69634 5.37582 9.97412 5.60131 10.1572 5.90196C10.3403 6.19608 10.4318 6.56863 10.4318 7.01961C10.4318 7.37909 10.3655 7.68301 10.233 7.93137C10.1067 8.1732 9.94255 8.37255 9.74053 8.52941C9.53851 8.67974 9.32702 8.80065 9.10606 8.89216L11 12H9.82576L8.19697 9.16667H7.02273V12H6V5H7.89394ZM7.82765 5.90196H7.02273V8.28431H7.875C8.22222 8.28431 8.50631 8.23856 8.72727 8.14706C8.95455 8.05556 9.11869 7.9183 9.2197 7.73529C9.32702 7.55229 9.38068 7.3268 9.38068 7.05882C9.38068 6.77778 9.32386 6.55556 9.21023 6.39216C9.1029 6.22222 8.93245 6.09804 8.69886 6.01961C8.47159 5.94118 8.18119 5.90196 7.82765 5.90196Z" fill="#4F4F4F"/>
</g>
</g>
<defs>
<clipPath id="clip0_598_4546">
<rect width="40" height="40" fill="white"/>
</clipPath>
</defs>
</svg>
