<svg width="40" height="40" viewBox="0 0 40 40" fill="none" xmlns="http://www.w3.org/2000/svg">
<g clip-path="url(#clip0_598_3590)">
<path d="M26.63 38.1192L21.6623 23.6794V15.6528H5.00318V23.6794L0.021783 38.1192C-0.141541 39.1059 0.634251 39.9992 1.65503 39.9992H24.7246C25.7454 39.9992 26.7934 39.1059 26.63 38.1192Z" fill="#868686"/>
<path d="M21.663 12.2399C21.663 11.3333 20.9144 10.6133 20.0025 10.6133H6.66437C5.73887 10.6133 5.00391 11.3466 5.00391 12.2399V13.8666H21.663V12.2399Z" fill="#868686"/>
<path d="M26.63 38.1192L21.6623 23.6794V15.6528H5.00318V23.6794L0.021783 38.1192C-0.141541 39.1059 0.634251 39.9992 1.65503 39.9992H24.7246C25.7454 39.9992 26.7934 39.1059 26.63 38.1192Z" fill="#868686"/>
<path d="M21.663 12.2399C21.663 11.3333 20.9144 10.6133 20.0025 10.6133H6.66437C5.73887 10.6133 5.00391 11.3466 5.00391 12.2399V13.8666H21.663V12.2399Z" fill="#868686"/>
<path d="M35.0039 18.7731C35.0039 17.8665 34.2554 17.1465 33.3435 17.1465H23.3398V18.7731H35.0039Z" fill="#BBBBBB"/>
<path d="M35.0039 25.3066V20.6133H23.3398V23.5466L28.294 37.8664C28.4165 38.6131 28.2532 39.3597 27.8721 39.9997H38.3385C39.3592 39.9997 40.135 39.1064 39.9853 38.1198L35.0039 25.3066Z" fill="#BBBBBB"/>
<path d="M34.9981 1.62665C33.746 1.62665 32.657 2.31997 32.0854 3.31996C31.1735 2.29331 29.8397 1.62665 28.3289 1.62665C26.9679 1.62665 25.743 2.15998 24.8447 3.02663C24.3683 1.29332 22.7623 0 20.8296 0C18.652 0 16.8827 1.65332 16.6922 3.73329C16.1886 3.43996 15.6169 3.26663 14.9908 3.26663C13.1534 3.26663 11.6562 4.73328 11.6562 6.53326C11.6562 7.13325 11.8333 7.67991 12.1191 8.15991H13.3167H16.6514H17.8491C18.0124 7.87991 18.1349 7.57325 18.2029 7.23992C18.9243 7.79991 19.809 8.15991 20.8025 8.15991C21.7825 8.15991 22.667 7.81325 23.3748 7.26659C23.7423 9.61323 25.7975 11.4265 28.3018 11.4265C30.67 11.4265 32.6434 9.79989 33.1606 7.63991C33.6778 7.97324 34.3039 8.17324 34.9708 8.17324C36.8082 8.17324 38.3054 6.70659 38.3054 4.90661C38.3327 3.0933 36.8355 1.62665 34.9981 1.62665Z" fill="#4F4F4F"/>
</g>
<defs>
<clipPath id="clip0_598_3590">
<rect width="40" height="40" fill="white"/>
</clipPath>
</defs>
</svg>
