<svg width="40" height="40" viewBox="0 0 40 40" fill="none" xmlns="http://www.w3.org/2000/svg">
<path d="M21.6932 14.6454C21.4915 14.6454 21.2763 14.5647 21.1283 14.4033C19.3529 12.5203 18.3711 10.0724 18.3711 7.51693C18.3711 4.82695 19.4202 2.31182 21.3301 0.401933C21.6394 0.0925849 22.1236 0.0925849 22.433 0.401933C22.7423 0.71128 22.7423 1.19548 22.433 1.50482C20.819 3.11881 19.9447 5.2439 19.9447 7.51693C19.9447 9.68236 20.7652 11.7536 22.2716 13.3407C22.5675 13.6501 22.554 14.1477 22.2447 14.4436C22.0833 14.5781 21.895 14.6454 21.6932 14.6454Z" fill="#E8E8E8"/>
<path opacity="0.75" d="M23.8841 12.4665C23.6689 12.4665 23.4671 12.3858 23.3057 12.211C22.1222 10.9198 21.4766 9.25202 21.4766 7.51698C21.4766 5.66089 22.2029 3.91241 23.5209 2.59432C23.8303 2.28497 24.3145 2.28497 24.6238 2.59432C24.9332 2.90366 24.9332 3.38786 24.6238 3.69721C23.6016 4.7194 23.0368 6.07784 23.0368 7.51698C23.0368 8.86197 23.5478 10.1532 24.4624 11.1619C24.7583 11.4847 24.7314 11.9689 24.4086 12.2648C24.2607 12.3993 24.0724 12.4665 23.8841 12.4665Z" fill="#BBBBBB"/>
<path opacity="0.75" d="M32.8182 12.6687C32.6165 12.6687 32.4147 12.588 32.2668 12.44C31.9574 12.1307 31.9574 11.6465 32.2668 11.3371C33.289 10.3149 33.8539 8.95648 33.8539 7.51734C33.8539 6.01095 33.2083 4.55836 32.0919 3.53617C31.7691 3.24027 31.7422 2.75608 32.0381 2.43328C32.334 2.11048 32.8182 2.09703 33.141 2.37948C34.5936 3.69757 35.4141 5.5671 35.4141 7.51734C35.4141 9.37343 34.6878 11.1219 33.3697 12.44C33.2217 12.588 33.02 12.6687 32.8182 12.6687Z" fill="#BBBBBB"/>
<path d="M35.0117 14.8607C34.8099 14.8607 34.6082 14.78 34.4602 14.6321C34.1509 14.3227 34.1509 13.8385 34.4602 13.5292C36.0742 11.9152 36.9619 9.7901 36.9619 7.51706C36.9619 5.16333 36.007 2.971 34.2719 1.34356C33.9626 1.04766 33.9491 0.550017 34.245 0.240669C34.5409 -0.0686783 35.0386 -0.0821288 35.3479 0.213769C37.3923 2.1371 38.5221 4.74639 38.5221 7.53052C38.5221 10.2205 37.473 12.7356 35.5631 14.6455C35.4152 14.78 35.2134 14.8607 35.0117 14.8607Z" fill="#E8E8E8"/>
<path d="M21.6932 14.6454C21.4915 14.6454 21.2763 14.5647 21.1283 14.4033C19.3529 12.5203 18.3711 10.0724 18.3711 7.51693C18.3711 4.82695 19.4202 2.31182 21.3301 0.401933C21.6394 0.092585 22.1236 0.092585 22.433 0.401933C22.7423 0.71128 22.7423 1.19548 22.433 1.50482C20.819 3.11881 19.9447 5.2439 19.9447 7.51693C19.9447 9.68236 20.7652 11.7536 22.2716 13.3407C22.5675 13.6501 22.554 14.1477 22.2447 14.4436C22.0833 14.5781 21.895 14.6454 21.6932 14.6454Z" fill="#D9D9D9"/>
<path d="M35.0117 14.8607C34.8099 14.8607 34.6082 14.78 34.4602 14.6321C34.1509 14.3227 34.1509 13.8385 34.4602 13.5292C36.0742 11.9152 36.9619 9.7901 36.9619 7.51706C36.9619 5.16333 36.007 2.971 34.2719 1.34356C33.9626 1.04766 33.9491 0.550017 34.245 0.240669C34.5409 -0.0686783 35.0386 -0.0821288 35.3479 0.213769C37.3923 2.1371 38.5221 4.74639 38.5221 7.53052C38.5221 10.2205 37.473 12.7356 35.5631 14.6455C35.4152 14.78 35.2134 14.8607 35.0117 14.8607Z" fill="#D9D9D9"/>
<path opacity="0.5" d="M30.6353 10.4755C30.4335 10.4755 30.2318 10.3948 30.0838 10.2469C29.7745 9.93753 29.7745 9.45333 30.0838 9.14398C30.5277 8.70014 30.7698 8.12179 30.7698 7.5031C30.7698 6.81715 30.4739 6.19846 29.9224 5.74116C29.5862 5.45871 29.5459 4.97451 29.8283 4.63827C30.0973 4.30202 30.5949 4.26167 30.9312 4.54412C31.8189 5.28386 32.3434 6.3733 32.3434 7.5031C32.3434 8.53874 31.9399 9.50713 31.2002 10.2469C31.0253 10.4083 30.8236 10.4755 30.6353 10.4755Z" fill="#868686"/>
<path opacity="0.5" d="M26.0806 10.2609C25.852 10.2609 25.6368 10.1667 25.4888 9.97841C24.8836 9.26556 24.5742 8.41822 24.5742 7.50362C24.5742 6.46798 24.9777 5.49959 25.7175 4.75984C26.0268 4.4505 26.511 4.4505 26.8204 4.75984C27.1297 5.06919 27.1297 5.55339 26.8204 5.86273C26.3765 6.30658 26.1344 6.88493 26.1344 7.50362C26.1344 8.04162 26.3227 8.55272 26.6859 8.96966C26.9683 9.30591 26.928 9.79011 26.5917 10.0726C26.4438 10.2071 26.2689 10.2609 26.0806 10.2609Z" fill="#868686"/>
<path d="M26.875 26.5757L27.7089 7.63823C27.7089 7.28853 27.9913 7.01953 28.3276 7.01953C28.6773 7.01953 28.9463 7.30198 28.9463 7.63823L29.7802 26.5757" fill="#868686"/>
<path d="M38.7357 27.8398H1.25084C0.564896 27.8398 0 28.4047 0 29.0907V37.8331C0 38.5191 0.564896 39.084 1.25084 39.084H38.7492C39.4351 39.084 40 38.5191 40 37.8331V29.0907C39.9865 28.3913 39.4351 27.8398 38.7357 27.8398ZM4.98991 33.4619C3.95427 33.4619 3.12038 32.628 3.12038 31.5924C3.12038 30.5567 3.95427 29.7228 4.98991 29.7228C6.02555 29.7228 6.85945 30.5567 6.85945 31.5924C6.8729 32.6146 6.039 33.4619 4.98991 33.4619ZM11.2441 33.4619C10.2085 33.4619 9.37458 32.628 9.37458 31.5924C9.37458 30.5567 10.2085 29.7228 11.2441 29.7228C12.2798 29.7228 13.1137 30.5567 13.1137 31.5924C13.1137 32.6146 12.2798 33.4619 11.2441 33.4619ZM22.4882 33.4619C21.4526 33.4619 20.6187 32.628 20.6187 31.5924C20.6187 30.5567 21.4526 29.7228 22.4882 29.7228C23.5239 29.7228 24.3578 30.5567 24.3578 31.5924C24.3712 32.6146 23.5373 33.4619 22.4882 33.4619ZM28.7424 33.4619C27.7068 33.4619 26.8729 32.628 26.8729 31.5924C26.8729 30.5567 27.7068 29.7228 28.7424 29.7228C29.7781 29.7228 30.612 30.5567 30.612 31.5924C30.612 32.6146 29.7781 33.4619 28.7424 33.4619ZM34.9966 33.4619C33.961 33.4619 33.1271 32.628 33.1271 31.5924C33.1271 30.5567 33.961 29.7228 34.9966 29.7228C36.0323 29.7228 36.8662 30.5567 36.8662 31.5924C36.8662 32.6146 36.0323 33.4619 34.9966 33.4619Z" fill="#9E9E9E"/>
<path d="M38.7357 27.8398H1.25084C0.564896 27.8398 0 28.4047 0 29.0907V37.8331C0 38.5191 0.564896 39.084 1.25084 39.084H38.7492C39.4351 39.084 40 38.5191 40 37.8331V29.0907C39.9865 28.3913 39.4351 27.8398 38.7357 27.8398ZM4.98991 33.4619C3.95427 33.4619 3.12038 32.628 3.12038 31.5924C3.12038 30.5567 3.95427 29.7228 4.98991 29.7228C6.02555 29.7228 6.85945 30.5567 6.85945 31.5924C6.8729 32.6146 6.039 33.4619 4.98991 33.4619ZM11.2441 33.4619C10.2085 33.4619 9.37458 32.628 9.37458 31.5924C9.37458 30.5567 10.2085 29.7228 11.2441 29.7228C12.2798 29.7228 13.1137 30.5567 13.1137 31.5924C13.1137 32.6146 12.2798 33.4619 11.2441 33.4619ZM22.4882 33.4619C21.4526 33.4619 20.6187 32.628 20.6187 31.5924C20.6187 30.5567 21.4526 29.7228 22.4882 29.7228C23.5239 29.7228 24.3578 30.5567 24.3578 31.5924C24.3712 32.6146 23.5373 33.4619 22.4882 33.4619ZM28.7424 33.4619C27.7068 33.4619 26.8729 32.628 26.8729 31.5924C26.8729 30.5567 27.7068 29.7228 28.7424 29.7228C29.7781 29.7228 30.612 30.5567 30.612 31.5924C30.612 32.6146 29.7781 33.4619 28.7424 33.4619ZM34.9966 33.4619C33.961 33.4619 33.1271 32.628 33.1271 31.5924C33.1271 30.5567 33.961 29.7228 34.9966 29.7228C36.0323 29.7228 36.8662 30.5567 36.8662 31.5924C36.8662 32.6146 36.0323 33.4619 34.9966 33.4619Z" fill="#868686"/>
<path d="M40 35.3315H0V36.5824H40V35.3315Z" fill="#BBBBBB"/>
</svg>
