<svg width="40" height="40" viewBox="0 0 40 40" fill="none" xmlns="http://www.w3.org/2000/svg">
<g clip-path="url(#clip0_598_3460)">
<path d="M12 3L12 1C12 0.447715 12.4477 -6.22642e-08 13 -1.39071e-07L27 -2.08607e-06C27.5523 -2.16287e-06 28 0.447713 28 0.999998L28 3C28 3.55228 27.5523 4 27 4L13 4C12.4477 4 12 3.55228 12 3Z" fill="#A5A5A5"/>
<path fill-rule="evenodd" clip-rule="evenodd" d="M14 4V13L20 19L26 13V4H14Z" fill="#BBBBBB"/>
<path d="M28 37L28 39C28 39.5523 27.5523 40 27 40L13 40C12.4477 40 12 39.5523 12 39L12 37C12 36.4477 12.4477 36 13 36L27 36C27.5523 36 28 36.4477 28 37Z" fill="#A5A5A5"/>
<path fill-rule="evenodd" clip-rule="evenodd" d="M26 36V27L20 21L14 27V36H26Z" fill="#BBBBBB"/>
<path d="M37 12L39 12C39.5523 12 40 12.4477 40 13L40 27C40 27.5523 39.5523 28 39 28L37 28C36.4477 28 36 27.5523 36 27L36 13C36 12.4477 36.4477 12 37 12Z" fill="#A5A5A5"/>
<path fill-rule="evenodd" clip-rule="evenodd" d="M36 14H27L21 20L27 26H36V14Z" fill="#BBBBBB"/>
<path d="M3 28L1 28C0.447715 28 -3.5534e-09 27.5523 -7.93675e-09 27L-1.19051e-07 13C-1.23435e-07 12.4477 0.447715 12 1 12L3 12C3.55228 12 4 12.4477 4 13L4 27C4 27.5523 3.55228 28 3 28Z" fill="#A5A5A5"/>
<path fill-rule="evenodd" clip-rule="evenodd" d="M4 26H13L19 20L13 14H4V26Z" fill="#BBBBBB"/>
</g>
<defs>
<clipPath id="clip0_598_3460">
<rect width="40" height="40" fill="white"/>
</clipPath>
</defs>
</svg>
