<svg width="40" height="40" viewBox="0 0 40 40" fill="none" xmlns="http://www.w3.org/2000/svg">
<g clip-path="url(#clip0_598_3923)">
<mask id="mask0_598_3923" style="mask-type:luminance" maskUnits="userSpaceOnUse" x="0" y="0" width="40" height="40">
<path d="M40 0H0V40H40V0Z" fill="white"/>
</mask>
<g mask="url(#mask0_598_3923)">
<path d="M3 6V34H37V6H3ZM30 17C30 17.5493 29.5507 18 29 18H11C10.4507 18 10 17.5493 10 17V10C10 9.45067 10.4507 9 11 9H29C29.5507 9 30 9.45067 30 10V17Z" fill="#C3C3C3"/>
<path d="M29.0244 10V17H10.9756V10H29.0244ZM29.0244 9H10.9756C10.4397 9 10 9.45067 10 10V17C10 17.5493 10.4397 18 10.9756 18H29.0244C29.5616 18 30 17.5493 30 17V10C30 9.45067 29.5616 9 29.0244 9Z" fill="#BBBBBB"/>
<path d="M27.9225 11H27.9147H27.9044H12.3434C12.1523 11 11.9961 11.0952 11.9961 11.2142V15.8469C11.9961 15.9316 12.1033 16.0003 12.235 16.0003C12.2582 16.0003 12.2763 15.9964 12.2982 15.9911L12.4093 15.9501L27.9703 11.0952L27.9767 11.0939C27.9922 11.0833 28.0013 11.0688 28.0013 11.0542C28 11.0251 27.9651 11.004 27.9225 11Z" fill="#E1E1E1"/>
<path d="M12.001 26.9376L13.1134 26.8794C13.1293 27.2339 13.1901 27.472 13.296 27.5963C13.4666 27.7974 13.7814 27.8992 14.2417 27.8992C14.624 27.8992 14.9004 27.8305 15.071 27.6942C15.2417 27.558 15.3263 27.3913 15.3263 27.1982C15.3263 27.0302 15.2562 26.8887 15.1173 26.7723C15.0194 26.6876 14.7509 26.5488 14.3091 26.3583C13.8687 26.1665 13.5473 26.0078 13.3449 25.8795C13.1425 25.7525 12.9825 25.5858 12.8661 25.3821C12.7497 25.1784 12.6915 24.939 12.6915 24.6652C12.6915 24.1877 12.8648 23.7909 13.2113 23.4761C13.5579 23.1613 14.0592 23.0039 14.7152 23.0039C15.3819 23.0039 15.899 23.16 16.2628 23.4721C16.6279 23.7843 16.8302 24.201 16.8659 24.7195L15.7456 24.7697C15.7178 24.4986 15.6186 24.2909 15.4506 24.1454C15.2827 23.9999 15.0353 23.9285 14.706 23.9285C14.3832 23.9285 14.1531 23.9854 14.0142 24.0991C13.8766 24.2129 13.8078 24.3557 13.8078 24.529C13.8078 24.6917 13.8713 24.8266 13.9983 24.9324C14.1253 25.0409 14.4057 25.189 14.8396 25.3782C15.493 25.6599 15.9096 25.8887 16.0869 26.0646C16.3527 26.3226 16.4863 26.6546 16.4863 27.0606C16.4863 27.562 16.2879 27.9892 15.8911 28.345C15.4956 28.7021 14.9427 28.878 14.2351 28.878C13.747 28.878 13.3237 28.7947 12.9666 28.6307C12.6081 28.468 12.3555 28.2392 12.2087 27.9469C12.0619 27.6545 11.9904 27.3186 12.001 26.9376Z" fill="#4F4F4F"/>
<path d="M19.9546 28.7792H18.7073L17.6875 23.0981H18.8541L19.575 27.3956L21.9268 23.0981H23.0855L19.9546 28.7792Z" fill="#4F4F4F"/>
<path d="M26.5236 26.7327L27.7022 26.9112C27.472 27.5488 27.1268 28.0382 26.6678 28.3728C26.2075 28.7114 25.6692 28.8794 25.0515 28.8794C24.357 28.8794 23.8134 28.6704 23.4219 28.2511C23.0317 27.8332 22.8359 27.226 22.8359 26.4298C22.8359 25.7843 22.9669 25.1917 23.2288 24.6574C23.492 24.1217 23.8557 23.7103 24.32 23.4259C24.7843 23.1415 25.2909 23 25.8385 23C26.4535 23 26.9509 23.164 27.3305 23.4947C27.7101 23.8227 27.9337 24.2724 28.0011 24.8412L26.8808 24.9497C26.8186 24.619 26.6996 24.3783 26.5223 24.2314C26.3451 24.0833 26.1096 24.0079 25.816 24.0079C25.4933 24.0079 25.1904 24.1058 24.9099 24.3029C24.6309 24.4986 24.406 24.8055 24.238 25.2235C24.07 25.6401 23.9867 26.0568 23.9867 26.4721C23.9867 26.9271 24.0965 27.2776 24.3134 27.5263C24.5316 27.775 24.8041 27.898 25.1295 27.898C25.4324 27.898 25.7089 27.8001 25.9615 27.603C26.2115 27.4086 26.4006 27.1176 26.5236 26.7327Z" fill="#4F4F4F"/>
<path d="M39 6H38H37V7V33V34H38H39C39.5493 34 40 33.5493 40 33V7C40 6.45067 39.5493 6 39 6Z" fill="#BBBBBB"/>
<path d="M1 34H2H3V33V7V6H2H1C0.450667 6 0 6.45067 0 7V33C0 33.5493 0.450667 34 1 34Z" fill="#BBBBBB"/>
</g>
</g>
<defs>
<clipPath id="clip0_598_3923">
<rect width="40" height="40" fill="white"/>
</clipPath>
</defs>
</svg>
